大一（下）/数字电路与逻辑设计/实验报告/实验源文件/experiment_13_0605/simulation/qsim/experiment_13_0605.msim.vcd
$comment
	File created using the following command:
		vcd file experiment_13_0605.msim.vcd -direction
$end
$date
	Fri Jun 05 15:48:44 2020
$end
$version
	ModelSim Version 10.1d
$end
$timescale
	1ps
$end
$scope module lab2_vlg_vec_tst $end
$var reg 1 ! CP $end
$var wire 1 " Ge [6] $end
$var wire 1 # Ge [5] $end
$var wire 1 $ Ge [4] $end
$var wire 1 % Ge [3] $end
$var wire 1 & Ge [2] $end
$var wire 1 ' Ge [1] $end
$var wire 1 ( Ge [0] $end
$var wire 1 ) Shi [6] $end
$var wire 1 * Shi [5] $end
$var wire 1 + Shi [4] $end
$var wire 1 , Shi [3] $end
$var wire 1 - Shi [2] $end
$var wire 1 . Shi [1] $end
$var wire 1 / Shi [0] $end
$var wire 1 0 sampler $end
$scope module i1 $end
$var wire 1 1 gnd $end
$var wire 1 2 vcc $end
$var wire 1 3 unknown $end
$var tri1 1 4 devclrn $end
$var tri1 1 5 devpor $end
$var tri1 1 6 devoe $end
$var wire 1 7 Ge[6]~output_o $end
$var wire 1 8 Ge[5]~output_o $end
$var wire 1 9 Ge[4]~output_o $end
$var wire 1 : Ge[3]~output_o $end
$var wire 1 ; Ge[2]~output_o $end
$var wire 1 < Ge[1]~output_o $end
$var wire 1 = Ge[0]~output_o $end
$var wire 1 > Shi[6]~output_o $end
$var wire 1 ? Shi[5]~output_o $end
$var wire 1 @ Shi[4]~output_o $end
$var wire 1 A Shi[3]~output_o $end
$var wire 1 B Shi[2]~output_o $end
$var wire 1 C Shi[1]~output_o $end
$var wire 1 D Shi[0]~output_o $end
$var wire 1 E CP~input_o $end
$var wire 1 F inst|7~0_combout $end
$var wire 1 G inst|7~feeder_combout $end
$var wire 1 H inst|7~q $end
$var wire 1 I inst|20~combout $end
$var wire 1 J inst|6~0_combout $end
$var wire 1 K inst|6~q $end
$var wire 1 L inst|5~0_combout $end
$var wire 1 M inst|5~q $end
$var wire 1 N inst|3~0_combout $end
$var wire 1 O inst|3~feeder_combout $end
$var wire 1 P inst|3~q $end
$var wire 1 Q inst2|72~combout $end
$var wire 1 R inst2|66~0_combout $end
$var wire 1 S inst2|71~combout $end
$var wire 1 T inst2|67~0_combout $end
$var wire 1 U inst2|70~combout $end
$var wire 1 V inst2|68~0_combout $end
$var wire 1 W inst2|69~0_combout $end
$var wire 1 X inst|34~0_combout $end
$var wire 1 Y inst|34~feeder_combout $end
$var wire 1 Z inst|34~q $end
$var wire 1 [ inst|31~0_combout $end
$var wire 1 \ inst|31~q $end
$var wire 1 ] inst|29~combout $end
$var wire 1 ^ inst|33~0_combout $end
$var wire 1 _ inst|33~feeder_combout $end
$var wire 1 ` inst|33~q $end
$var wire 1 a inst|32~0_combout $end
$var wire 1 b inst|32~q $end
$var wire 1 c inst4|72~0_combout $end
$var wire 1 d inst4|66~0_combout $end
$var wire 1 e inst4|71~combout $end
$var wire 1 f inst4|67~0_combout $end
$var wire 1 g inst4|70~0_combout $end
$var wire 1 h inst4|68~0_combout $end
$var wire 1 i inst4|69~0_combout $end
$upscope $end
$upscope $end
$enddefinitions $end
#0
$dumpvars
0!
1(
1'
1&
1%
1$
1#
0"
0/
0.
0-
0,
0+
0*
0)
x0
01
12
x3
14
15
16
07
18
19
1:
1;
1<
1=
0>
0?
0@
0A
0B
0C
0D
0E
1F
1G
0H
1I
1J
0K
1L
0M
0N
0O
0P
1Q
0R
0S
1T
0U
0V
0W
1X
1Y
0Z
0[
0\
1]
1^
1_
0`
1a
0b
1c
1d
1e
1f
1g
1h
1i
$end
#5000
1!
1E
00
#10000
0!
0E
10
1H
1W
1S
1R
0I
0F
0T
0G
0=
09
08
0:
0(
0$
0#
0%
#15000
1!
1E
00
#20000
0!
0E
10
0H
0W
0S
0R
1I
1F
1T
1G
1=
19
18
1:
1(
1$
1#
1%
1K
1U
1R
0Q
0J
0;
08
17
0&
0#
1"
#25000
1!
1E
00
#30000
0!
0E
10
1H
0U
1S
0I
0F
0G
1;
09
1&
0$
#35000
1!
1E
00
#40000
0!
0E
10
0H
1U
0S
1I
1F
1G
0;
19
0&
1$
0K
0U
0R
1Q
1J
1;
18
07
1&
1#
0"
1M
1W
1S
0Q
0L
0T
0=
09
17
0:
0(
0$
1"
0%
#45000
1!
1E
00
#50000
0!
0E
10
1H
0W
1V
0I
0F
1T
0G
1=
0<
1:
1(
0'
1%
#55000
1!
1E
00
#60000
0!
0E
10
0H
1W
0V
1I
1F
0T
1G
0=
1<
0:
0(
1'
0%
1K
1V
0S
1N
0J
1T
1O
0<
19
1:
0'
1$
1%
#65000
1!
1E
00
#70000
0!
0E
10
1H
0W
0V
1S
1R
1Q
0I
0F
0T
0G
1=
1<
09
08
07
0:
1(
1'
0$
0#
0"
0%
#75000
1!
1E
00
#80000
0!
0E
10
0H
1W
1V
0S
0R
0Q
1I
1F
1T
1G
0=
0<
19
18
17
1:
0(
0'
1$
1#
1"
1%
0K
1P
0V
1U
1S
0N
1J
0T
0O
1<
0;
09
0:
1'
0&
0$
0%
0M
0W
0U
0S
1L
1T
1=
1;
19
1:
1(
1&
1$
1%
#85000
1!
1E
00
#90000
0!
0E
10
1H
1S
0F
0T
0G
09
0:
0$
0%
#95000
1!
1E
00
#100000
0!
0E
10
0H
0S
1F
1T
1G
19
1:
1$
1%
0P
1Q
07
0"
1Z
0h
0g
0]
0X
0Y
1C
1B
1.
1-
#105000
1!
1E
00
#110000
0!
0E
10
1H
1W
1S
1R
0I
0F
0T
0G
0=
09
08
0:
0(
0$
0#
0%
#115000
1!
1E
00
#120000
0!
0E
10
0H
0W
0S
0R
1I
1F
1T
1G
1=
19
18
1:
1(
1$
1#
1%
1K
1U
1R
0Q
0J
0;
08
17
0&
0#
1"
#125000
1!
1E
00
#130000
0!
0E
10
1H
0U
1S
0I
0F
0G
1;
09
1&
0$
#135000
1!
1E
00
#140000
0!
0E
10
0H
1U
0S
1I
1F
1G
0;
19
0&
1$
0K
0U
0R
1Q
1J
1;
18
07
1&
1#
0"
1M
1W
1S
0Q
0L
0T
0=
09
17
0:
0(
0$
1"
0%
#145000
1!
1E
00
#150000
0!
0E
10
1H
0W
1V
0I
0F
1T
0G
1=
0<
1:
1(
0'
1%
#155000
1!
1E
00
#160000
0!
0E
10
0H
1W
0V
1I
1F
0T
1G
0=
1<
0:
0(
1'
0%
1K
1V
0S
1N
0J
1T
1O
0<
19
1:
0'
1$
1%
#165000
1!
1E
00
#170000
0!
0E
10
1H
0W
0V
1S
1R
1Q
0I
0F
0T
0G
1=
1<
09
08
07
0:
1(
1'
0$
0#
0"
0%
#175000
1!
1E
00
#180000
0!
0E
10
0H
1W
1V
0S
0R
0Q
1I
1F
1T
1G
0=
0<
19
18
17
1:
0(
0'
1$
1#
1"
1%
0K
1P
0V
1U
1S
0N
1J
0T
0O
1<
0;
09
0:
1'
0&
0$
0%
0M
0W
0U
0S
1L
1T
1=
1;
19
1:
1(
1&
1$
1%
#185000
1!
1E
00
#190000
0!
0E
10
1H
1S
0F
0T
0G
09
0:
0$
0%
#195000
1!
1E
00
#200000
0!
0E
10
0H
0S
1F
1T
1G
19
1:
1$
1%
0P
1Q
07
0"
0Z
1h
1g
1]
1X
1Y
0C
0B
0.
0-
1`
0i
0h
0f
0e
0c
0^
0_
1D
1C
1A
1@
1>
1/
1.
1,
1+
1)
#205000
1!
1E
00
#210000
0!
0E
10
1H
1W
1S
1R
0I
0F
0T
0G
0=
09
08
0:
0(
0$
0#
0%
#215000
1!
1E
00
#220000
0!
0E
10
0H
0W
0S
0R
1I
1F
1T
1G
1=
19
18
1:
1(
1$
1#
1%
1K
1U
1R
0Q
0J
0;
08
17
0&
0#
1"
#225000
1!
1E
00
#230000
0!
0E
10
1H
0U
1S
0I
0F
0G
1;
09
1&
0$
#235000
1!
1E
00
#240000
0!
0E
10
0H
1U
0S
1I
1F
1G
0;
19
0&
1$
0K
0U
0R
1Q
1J
1;
18
07
1&
1#
0"
1M
1W
1S
0Q
0L
0T
0=
09
17
0:
0(
0$
1"
0%
#245000
1!
1E
00
#250000
0!
0E
10
1H
0W
1V
0I
0F
1T
0G
1=
0<
1:
1(
0'
1%
#255000
1!
1E
00
#260000
0!
0E
10
0H
1W
0V
1I
1F
0T
1G
0=
1<
0:
0(
1'
0%
1K
1V
0S
1N
0J
1T
1O
0<
19
1:
0'
1$
1%
#265000
1!
1E
00
#270000
0!
0E
10
1H
0W
0V
1S
1R
1Q
0I
0F
0T
0G
1=
1<
09
08
07
0:
1(
1'
0$
0#
0"
0%
#275000
1!
1E
00
#280000
0!
0E
10
0H
1W
1V
0S
0R
0Q
1I
1F
1T
1G
0=
0<
19
18
17
1:
0(
0'
1$
1#
1"
1%
0K
1P
0V
1U
1S
0N
1J
0T
0O
1<
0;
09
0:
1'
0&
0$
0%
0M
0W
0U
0S
1L
1T
1=
1;
19
1:
1(
1&
1$
1%
#285000
1!
1E
00
#290000
0!
0E
10
1H
1S
0F
0T
0G
09
0:
0$
0%
#295000
1!
1E
00
#300000
0!
0E
10
0H
0S
1F
1T
1G
19
1:
1$
1%
0P
1Q
07
0"
1Z
0g
1e
0]
0X
0Y
1B
0@
1-
0+
#305000
1!
1E
00
#310000
0!
0E
10
1H
1W
1S
1R
0I
0F
0T
0G
0=
09
08
0:
0(
0$
0#
0%
#315000
1!
1E
00
#320000
0!
0E
10
0H
0W
0S
0R
1I
1F
1T
1G
1=
19
18
1:
1(
1$
1#
1%
1K
1U
1R
0Q
0J
0;
08
17
0&
0#
1"
#325000
1!
1E
00
#330000
0!
0E
10
1H
0U
1S
0I
0F
0G
1;
09
1&
0$
#335000
1!
1E
00
#340000
0!
0E
10
0H
1U
0S
1I
1F
1G
0;
19
0&
1$
0K
0U
0R
1Q
1J
1;
18
07
1&
1#
0"
1M
1W
1S
0Q
0L
0T
0=
09
17
0:
0(
0$
1"
0%
#345000
1!
1E
00
#350000
0!
0E
10
1H
0W
1V
0I
0F
1T
0G
1=
0<
1:
1(
0'
1%
#355000
1!
1E
00
#360000
0!
0E
10
0H
1W
0V
1I
1F
0T
1G
0=
1<
0:
0(
1'
0%
1K
1V
0S
1N
0J
1T
1O
0<
19
1:
0'
1$
1%
#365000
1!
1E
00
#370000
0!
0E
10
1H
0W
0V
1S
1R
1Q
0I
0F
0T
0G
1=
1<
09
08
07
0:
1(
1'
0$
0#
0"
0%
#375000
1!
1E
00
#380000
0!
0E
10
0H
1W
1V
0S
0R
0Q
1I
1F
1T
1G
0=
0<
19
18
17
1:
0(
0'
1$
1#
1"
1%
0K
1P
0V
1U
1S
0N
1J
0T
0O
1<
0;
09
0:
1'
0&
0$
0%
0M
0W
0U
0S
1L
1T
1=
1;
19
1:
1(
1&
1$
1%
#385000
1!
1E
00
#390000
0!
0E
10
1H
1S
0F
0T
0G
09
0:
0$
0%
#395000
1!
1E
00
#400000
0!
0E
10
0H
0S
1F
1T
1G
19
1:
1$
1%
0P
1Q
07
0"
0Z
1g
0e
1]
1X
1Y
0B
1@
0-
1+
0`
1i
1h
1f
1e
1c
1^
1_
0D
0C
0A
0@
0>
0/
0.
0,
0+
0)
1b
0h
0g
0d
0c
0a
1C
1B
1?
1>
1.
1-
1*
1)
#405000
1!
1E
00
#410000
0!
0E
10
1H
1W
1S
1R
0I
0F
0T
0G
0=
09
08
0:
0(
0$
0#
0%
#415000
1!
1E
00
#420000
0!
0E
10
0H
0W
0S
0R
1I
1F
1T
1G
1=
19
18
1:
1(
1$
1#
1%
1K
1U
1R
0Q
0J
0;
08
17
0&
0#
1"
#425000
1!
1E
00
#430000
0!
0E
10
1H
0U
1S
0I
0F
0G
1;
09
1&
0$
#435000
1!
1E
00
#440000
0!
0E
10
0H
1U
0S
1I
1F
1G
0;
19
0&
1$
0K
0U
0R
1Q
1J
1;
18
07
1&
1#
0"
1M
1W
1S
0Q
0L
0T
0=
09
17
0:
0(
0$
1"
0%
#445000
1!
1E
00
#450000
0!
0E
10
1H
0W
1V
0I
0F
1T
0G
1=
0<
1:
1(
0'
1%
#455000
1!
1E
00
#460000
0!
0E
10
0H
1W
0V
1I
1F
0T
1G
0=
1<
0:
0(
1'
0%
1K
1V
0S
1N
0J
1T
1O
0<
19
1:
0'
1$
1%
#465000
1!
1E
00
#470000
0!
0E
10
1H
0W
0V
1S
1R
1Q
0I
0F
0T
0G
1=
1<
09
08
07
0:
1(
1'
0$
0#
0"
0%
#475000
1!
1E
00
#480000
0!
0E
10
0H
1W
1V
0S
0R
0Q
1I
1F
1T
1G
0=
0<
19
18
17
1:
0(
0'
1$
1#
1"
1%
0K
1P
0V
1U
1S
0N
1J
0T
0O
1<
0;
09
0:
1'
0&
0$
0%
0M
0W
0U
0S
1L
1T
1=
1;
19
1:
1(
1&
1$
1%
#485000
1!
1E
00
#490000
0!
0E
10
1H
1S
0F
0T
0G
09
0:
0$
0%
#495000
1!
1E
00
#500000
0!
0E
10
0H
0S
1F
1T
1G
19
1:
1$
1%
0P
1Q
07
0"
1Z
0i
1h
0f
0]
0X
0Y
1D
0C
1A
1/
0.
1,
#505000
1!
1E
00
#510000
0!
0E
10
1H
1W
1S
1R
0I
0F
0T
0G
0=
09
08
0:
0(
0$
0#
0%
#515000
1!
1E
00
#520000
0!
0E
10
0H
0W
0S
0R
1I
1F
1T
1G
1=
19
18
1:
1(
1$
1#
1%
1K
1U
1R
0Q
0J
0;
08
17
0&
0#
1"
#525000
1!
1E
00
#530000
0!
0E
10
1H
0U
1S
0I
0F
0G
1;
09
1&
0$
#535000
1!
1E
00
#540000
0!
0E
10
0H
1U
0S
1I
1F
1G
0;
19
0&
1$
0K
0U
0R
1Q
1J
1;
18
07
1&
1#
0"
1M
1W
1S
0Q
0L
0T
0=
09
17
0:
0(
0$
1"
0%
#545000
1!
1E
00
#550000
0!
0E
10
1H
0W
1V
0I
0F
1T
0G
1=
0<
1:
1(
0'
1%
#555000
1!
1E
00
#560000
0!
0E
10
0H
1W
0V
1I
1F
0T
1G
0=
1<
0:
0(
1'
0%
1K
1V
0S
1N
0J
1T
1O
0<
19
1:
0'
1$
1%
#565000
1!
1E
00
#570000
0!
0E
10
1H
0W
0V
1S
1R
1Q
0I
0F
0T
0G
1=
1<
09
08
07
0:
1(
1'
0$
0#
0"
0%
#575000
1!
1E
00
#580000
0!
0E
10
0H
1W
1V
0S
0R
0Q
1I
1F
1T
1G
0=
0<
19
18
17
1:
0(
0'
1$
1#
1"
1%
0K
1P
0V
1U
1S
0N
1J
0T
0O
1<
0;
09
0:
1'
0&
0$
0%
0M
0W
0U
0S
1L
1T
1=
1;
19
1:
1(
1&
1$
1%
#585000
1!
1E
00
#590000
0!
0E
10
1H
1S
0F
0T
0G
09
0:
0$
0%
#595000
1!
1E
00
#600000
0!
0E
10
0H
0S
1F
1T
1G
19
1:
1$
1%
0P
1Q
07
0"
0Z
1i
0h
1f
1]
1X
1Y
0D
1C
0A
0/
1.
0,
1`
1h
0f
0e
0^
1[
0_
0C
1A
1@
0.
1,
1+
#605000
1!
1E
00
#610000
0!
0E
10
1H
1W
1S
1R
0I
0F
0T
0G
0=
09
08
0:
0(
0$
0#
0%
#615000
1!
1E
00
#620000
0!
0E
10
0H
0W
0S
0R
1I
1F
1T
1G
1=
19
18
1:
1(
1$
1#
1%
1K
1U
1R
0Q
0J
0;
08
17
0&
0#
1"
#625000
1!
1E
00
#630000
0!
0E
10
1H
0U
1S
0I
0F
0G
1;
09
1&
0$
#635000
1!
1E
00
#640000
0!
0E
10
0H
1U
0S
1I
1F
1G
0;
19
0&
1$
0K
0U
0R
1Q
1J
1;
18
07
1&
1#
0"
1M
1W
1S
0Q
0L
0T
0=
09
17
0:
0(
0$
1"
0%
#645000
1!
1E
00
#650000
0!
0E
10
1H
0W
1V
0I
0F
1T
0G
1=
0<
1:
1(
0'
1%
#655000
1!
1E
00
#660000
0!
0E
10
0H
1W
0V
1I
1F
0T
1G
0=
1<
0:
0(
1'
0%
1K
1V
0S
1N
0J
1T
1O
0<
19
1:
0'
1$
1%
#665000
1!
1E
00
#670000
0!
0E
10
1H
0W
0V
1S
1R
1Q
0I
0F
0T
0G
1=
1<
09
08
07
0:
1(
1'
0$
0#
0"
0%
#675000
1!
1E
00
#680000
0!
0E
10
0H
1W
1V
0S
0R
0Q
1I
1F
1T
1G
0=
0<
19
18
17
1:
0(
0'
1$
1#
1"
1%
0K
1P
0V
1U
1S
0N
1J
0T
0O
1<
0;
09
0:
1'
0&
0$
0%
0M
0W
0U
0S
1L
1T
1=
1;
19
1:
1(
1&
1$
1%
#685000
1!
1E
00
#690000
0!
0E
10
1H
1S
0F
0T
0G
09
0:
0$
0%
#695000
1!
1E
00
#700000
0!
0E
10
0H
0S
1F
1T
1G
19
1:
1$
1%
0P
1Q
07
0"
1Z
0i
0h
1f
1e
1d
1c
0]
0X
0Y
1D
1C
0A
0@
0?
0>
1/
1.
0,
0+
0*
0)
#705000
1!
1E
00
#710000
0!
0E
10
1H
1W
1S
1R
0I
0F
0T
0G
0=
09
08
0:
0(
0$
0#
0%
#715000
1!
1E
00
#720000
0!
0E
10
0H
0W
0S
0R
1I
1F
1T
1G
1=
19
18
1:
1(
1$
1#
1%
1K
1U
1R
0Q
0J
0;
08
17
0&
0#
1"
#725000
1!
1E
00
#730000
0!
0E
10
1H
0U
1S
0I
0F
0G
1;
09
1&
0$
#735000
1!
1E
00
#740000
0!
0E
10
0H
1U
0S
1I
1F
1G
0;
19
0&
1$
0K
0U
0R
1Q
1J
1;
18
07
1&
1#
0"
1M
1W
1S
0Q
0L
0T
0=
09
17
0:
0(
0$
1"
0%
#745000
1!
1E
00
#750000
0!
0E
10
1H
0W
1V
0I
0F
1T
0G
1=
0<
1:
1(
0'
1%
#755000
1!
1E
00
#760000
0!
0E
10
0H
1W
0V
1I
1F
0T
1G
0=
1<
0:
0(
1'
0%
1K
1V
0S
1N
0J
1T
1O
0<
19
1:
0'
1$
1%
#765000
1!
1E
00
#770000
0!
0E
10
1H
0W
0V
1S
1R
1Q
0I
0F
0T
0G
1=
1<
09
08
07
0:
1(
1'
0$
0#
0"
0%
#775000
1!
1E
00
#780000
0!
0E
10
0H
1W
1V
0S
0R
0Q
1I
1F
1T
1G
0=
0<
19
18
17
1:
0(
0'
1$
1#
1"
1%
0K
1P
0V
1U
1S
0N
1J
0T
0O
1<
0;
09
0:
1'
0&
0$
0%
0M
0W
0U
0S
1L
1T
1=
1;
19
1:
1(
1&
1$
1%
#785000
1!
1E
00
#790000
0!
0E
10
1H
1S
0F
0T
0G
09
0:
0$
0%
#795000
1!
1E
00
#800000
0!
0E
10
0H
0S
1F
1T
1G
19
1:
1$
1%
0P
1Q
07
0"
0Z
1i
1h
0f
0e
0d
0c
1]
1X
1Y
0D
0C
1A
1@
1?
1>
0/
0.
1,
1+
1*
1)
0`
1\
0h
1g
1f
1e
1^
0[
1_
1C
0B
0A
0@
1.
0-
0,
0+
0b
0i
0g
0f
0e
1a
1D
1B
1A
1@
1/
1-
1,
1+
#805000
1!
1E
00
#810000
0!
0E
10
1H
1W
1S
1R
0I
0F
0T
0G
0=
09
08
0:
0(
0$
0#
0%
#815000
1!
1E
00
#820000
0!
0E
10
0H
0W
0S
0R
1I
1F
1T
1G
1=
19
18
1:
1(
1$
1#
1%
1K
1U
1R
0Q
0J
0;
08
17
0&
0#
1"
#825000
1!
1E
00
#830000
0!
0E
10
1H
0U
1S
0I
0F
0G
1;
09
1&
0$
#835000
1!
1E
00
#840000
0!
0E
10
0H
1U
0S
1I
1F
1G
0;
19
0&
1$
0K
0U
0R
1Q
1J
1;
18
07
1&
1#
0"
1M
1W
1S
0Q
0L
0T
0=
09
17
0:
0(
0$
1"
0%
#845000
1!
1E
00
#850000
0!
0E
10
1H
0W
1V
0I
0F
1T
0G
1=
0<
1:
1(
0'
1%
#855000
1!
1E
00
#860000
0!
0E
10
0H
1W
0V
1I
1F
0T
1G
0=
1<
0:
0(
1'
0%
1K
1V
0S
1N
0J
1T
1O
0<
19
1:
0'
1$
1%
#865000
1!
1E
00
#870000
0!
0E
10
1H
0W
0V
1S
1R
1Q
0I
0F
0T
0G
1=
1<
09
08
07
0:
1(
1'
0$
0#
0"
0%
#875000
1!
1E
00
#880000
0!
0E
10
0H
1W
1V
0S
0R
0Q
1I
1F
1T
1G
0=
0<
19
18
17
1:
0(
0'
1$
1#
1"
1%
0K
1P
0V
1U
1S
0N
1J
0T
0O
1<
0;
09
0:
1'
0&
0$
0%
0M
0W
0U
0S
1L
1T
1=
1;
19
1:
1(
1&
1$
1%
#885000
1!
1E
00
#890000
0!
0E
10
1H
1S
0F
0T
0G
09
0:
0$
0%
#895000
1!
1E
00
#900000
0!
0E
10
0H
0S
1F
1T
1G
19
1:
1$
1%
0P
1Q
07
0"
1Z
1f
1e
0X
0Y
0A
0@
0,
0+
#905000
1!
1E
00
#910000
0!
0E
10
1H
1W
1S
1R
0I
0F
0T
0G
0=
09
08
0:
0(
0$
0#
0%
#915000
1!
1E
00
#920000
0!
0E
10
0H
0W
0S
0R
1I
1F
1T
1G
1=
19
18
1:
1(
1$
1#
1%
1K
1U
1R
0Q
0J
0;
08
17
0&
0#
1"
#925000
1!
1E
00
#930000
0!
0E
10
1H
0U
1S
0I
0F
0G
1;
09
1&
0$
#935000
1!
1E
00
#940000
0!
0E
10
0H
1U
0S
1I
1F
1G
0;
19
0&
1$
0K
0U
0R
1Q
1J
1;
18
07
1&
1#
0"
1M
1W
1S
0Q
0L
0T
0=
09
17
0:
0(
0$
1"
0%
#945000
1!
1E
00
#950000
0!
0E
10
1H
0W
1V
0I
0F
1T
0G
1=
0<
1:
1(
0'
1%
#955000
1!
1E
00
#960000
0!
0E
10
0H
1W
0V
1I
1F
0T
1G
0=
1<
0:
0(
1'
0%
1K
1V
0S
1N
0J
1T
1O
0<
19
1:
0'
1$
1%
#965000
1!
1E
00
#970000
0!
0E
10
1H
0W
0V
1S
1R
1Q
0I
0F
0T
0G
1=
1<
09
08
07
0:
1(
1'
0$
0#
0"
0%
#975000
1!
1E
00
#980000
0!
0E
10
0H
1W
1V
0S
0R
0Q
1I
1F
1T
1G
0=
0<
19
18
17
1:
0(
0'
1$
1#
1"
1%
0K
1P
0V
1U
1S
0N
1J
0T
0O
1<
0;
09
0:
1'
0&
0$
0%
0M
0W
0U
0S
1L
1T
1=
1;
19
1:
1(
1&
1$
1%
#985000
1!
1E
00
#990000
0!
0E
10
1H
1S
0F
0T
0G
09
0:
0$
0%
#995000
1!
1E
00
