大一（下）/数字电路与逻辑设计/实验报告/实验源文件/experiment_10/simulation/qsim/experiment_10.msim.vcd
$comment
	File created using the following command:
		vcd file experiment_10.msim.vcd -direction
$end
$date
	Fri May 22 15:37:47 2020
$end
$version
	ModelSim Version 10.1d
$end
$timescale
	1ps
$end
$scope module lab3_vlg_vec_tst $end
$var reg 1 ! clk $end
$var wire 1 " F [3] $end
$var wire 1 # F [2] $end
$var wire 1 $ F [1] $end
$var wire 1 % F [0] $end
$var wire 1 & Y [3] $end
$var wire 1 ' Y [2] $end
$var wire 1 ( Y [1] $end
$var wire 1 ) Y [0] $end
$var wire 1 * sampler $end
$scope module i1 $end
$var wire 1 + gnd $end
$var wire 1 , vcc $end
$var wire 1 - unknown $end
$var tri1 1 . devclrn $end
$var tri1 1 / devpor $end
$var tri1 1 0 devoe $end
$var wire 1 1 F[3]~output_o $end
$var wire 1 2 F[2]~output_o $end
$var wire 1 3 F[1]~output_o $end
$var wire 1 4 F[0]~output_o $end
$var wire 1 5 Y[3]~output_o $end
$var wire 1 6 Y[2]~output_o $end
$var wire 1 7 Y[1]~output_o $end
$var wire 1 8 Y[0]~output_o $end
$var wire 1 9 clk~input_o $end
$var wire 1 : inst|7~0_combout $end
$var wire 1 ; inst|7~feeder_combout $end
$var wire 1 < inst1~1_combout $end
$var wire 1 = inst|7~q $end
$var wire 1 > inst|3~0_combout $end
$var wire 1 ? inst|3~feeder_combout $end
$var wire 1 @ inst|3~q $end
$var wire 1 A inst|20~combout $end
$var wire 1 B inst|6~0_combout $end
$var wire 1 C inst|6~q $end
$var wire 1 D inst|5~0_combout $end
$var wire 1 E inst|5~q $end
$var wire 1 F inst|29~combout $end
$var wire 1 G inst|33~0_combout $end
$var wire 1 H inst4~combout $end
$var wire 1 I inst4~clkctrl_outclk $end
$var wire 1 J inst|33~q $end
$var wire 1 K inst|32~0_combout $end
$var wire 1 L inst|32~q $end
$var wire 1 M inst|31~0_combout $end
$var wire 1 N inst|31~q $end
$upscope $end
$upscope $end
$enddefinitions $end
#0
$dumpvars
0!
0%
0$
0#
0"
0)
0(
0'
0&
x*
0+
1,
x-
1.
1/
10
01
02
03
04
05
06
07
08
09
1:
1;
x<
0=
0>
0?
0@
1A
1B
0C
1D
0E
1F
1G
xH
xI
0J
1K
0L
0M
0N
$end
#5000
1!
19
0*
1H
1<
1I
#10000
0!
09
1*
1=
0A
0:
18
1)
0;
#15000
1!
19
0*
#20000
0!
09
1*
0=
1A
1:
08
0)
1;
1C
0B
17
1(
#25000
1!
19
0*
#30000
0!
09
1*
1=
0A
0:
18
1)
0;
#35000
1!
19
0*
#40000
0!
09
1*
0=
1A
1:
08
0)
1;
0C
1B
07
0(
1E
0F
0D
16
1'
#45000
1!
19
0*
#50000
0!
09
1*
1=
0A
0:
18
1)
0;
#55000
1!
19
0*
#60000
0!
09
1*
0=
1A
1:
08
0)
1;
1C
0B
1>
0<
17
1(
1?
0E
0C
1F
1D
0>
1B
06
07
0'
0(
0?
1J
0G
13
1$
#65000
1!
19
0*
1<
#70000
0!
09
1*
1=
0A
0:
18
1)
0;
#75000
1!
19
0*
#80000
0!
09
1*
0=
1A
1:
08
0)
1;
1C
0B
17
1(
#85000
1!
19
0*
#90000
0!
09
1*
1=
0A
0:
18
1)
0;
#95000
1!
19
0*
#100000
0!
09
1*
0=
1A
1:
08
0)
1;
0C
1B
07
0(
1E
0F
0D
16
1'
#105000
1!
19
0*
#110000
0!
09
1*
1=
0A
0:
18
1)
0;
#115000
1!
19
0*
#120000
0!
09
1*
0=
1A
1:
08
0)
1;
1C
0B
1>
0<
17
1(
1?
0E
0C
1F
1D
0>
1B
06
07
0'
0(
0?
0J
1G
03
0$
1L
0K
12
1#
#125000
1!
19
0*
1<
#130000
0!
09
1*
1=
0A
0:
18
1)
0;
#135000
1!
19
0*
#140000
0!
09
1*
0=
1A
1:
08
0)
1;
1C
0B
17
1(
#145000
1!
19
0*
#150000
0!
09
1*
1=
0A
0:
18
1)
0;
#155000
1!
19
0*
#160000
0!
09
1*
0=
1A
1:
08
0)
1;
0C
1B
07
0(
1E
0F
0D
16
1'
#165000
1!
19
0*
#170000
0!
09
1*
1=
0A
0:
18
1)
0;
#175000
1!
19
0*
#180000
0!
09
1*
0=
1A
1:
08
0)
1;
1C
0B
1>
0<
17
1(
1?
0E
0C
1F
1D
0>
1B
06
07
0'
0(
0?
1J
1M
0G
13
1$
#185000
1!
19
0*
1<
#190000
0!
09
1*
1=
0A
0:
18
1)
0;
#195000
1!
19
0*
#200000
0!
09
1*
0=
1A
1:
08
0)
1;
1C
0B
17
1(
#205000
1!
19
0*
#210000
0!
09
1*
1=
0A
0:
18
1)
0;
#215000
1!
19
0*
#220000
0!
09
1*
0=
1A
1:
08
0)
1;
0C
1B
07
0(
1E
0F
0D
16
1'
#225000
1!
19
0*
#230000
0!
09
1*
1=
0A
0:
18
1)
0;
#235000
1!
19
0*
#240000
0!
09
1*
0=
1A
1:
08
0)
1;
1C
0B
1>
0<
17
1(
1?
0E
0C
1F
1D
0>
1B
06
07
0'
0(
0?
0J
1N
0M
1G
0H
03
11
0I
0$
1"
0N
0L
1K
01
02
0"
0#
#245000
1!
19
0*
1H
1<
1I
#250000
0!
09
1*
1=
0A
0:
18
1)
0;
#255000
1!
19
0*
#260000
0!
09
1*
0=
1A
1:
08
0)
1;
1C
0B
17
1(
#265000
1!
19
0*
#270000
0!
09
1*
1=
0A
0:
18
1)
0;
#275000
1!
19
0*
#280000
0!
09
1*
0=
1A
1:
08
0)
1;
0C
1B
07
0(
1E
0F
0D
16
1'
#285000
1!
19
0*
#290000
0!
09
1*
1=
0A
0:
18
1)
0;
#295000
1!
19
0*
#300000
0!
09
1*
0=
1A
1:
08
0)
1;
1C
0B
1>
0<
17
1(
1?
0E
0C
1F
1D
0>
1B
06
07
0'
0(
0?
1J
0G
13
1$
#305000
1!
19
0*
1<
#310000
0!
09
1*
1=
0A
0:
18
1)
0;
#315000
1!
19
0*
#320000
0!
09
1*
0=
1A
1:
08
0)
1;
1C
0B
17
1(
#325000
1!
19
0*
#330000
0!
09
1*
1=
0A
0:
18
1)
0;
#335000
1!
19
0*
#340000
0!
09
1*
0=
1A
1:
08
0)
1;
0C
1B
07
0(
1E
0F
0D
16
1'
#345000
1!
19
0*
#350000
0!
09
1*
1=
0A
0:
18
1)
0;
#355000
1!
19
0*
#360000
0!
09
1*
0=
1A
1:
08
0)
1;
1C
0B
1>
0<
17
1(
1?
0E
0C
1F
1D
0>
1B
06
07
0'
0(
0?
0J
1G
03
0$
1L
0K
12
1#
#365000
1!
19
0*
1<
#370000
0!
09
1*
1=
0A
0:
18
1)
0;
#375000
1!
19
0*
#380000
0!
09
1*
0=
1A
1:
08
0)
1;
1C
0B
17
1(
#385000
1!
19
0*
#390000
0!
09
1*
1=
0A
0:
18
1)
0;
#395000
1!
19
0*
#400000
0!
09
1*
0=
1A
1:
08
0)
1;
0C
1B
07
0(
1E
0F
0D
16
1'
#405000
1!
19
0*
#410000
0!
09
1*
1=
0A
0:
18
1)
0;
#415000
1!
19
0*
#420000
0!
09
1*
0=
1A
1:
08
0)
1;
1C
0B
1>
0<
17
1(
1?
0E
0C
1F
1D
0>
1B
06
07
0'
0(
0?
1J
1M
0G
13
1$
#425000
1!
19
0*
1<
#430000
0!
09
1*
1=
0A
0:
18
1)
0;
#435000
1!
19
0*
#440000
0!
09
1*
0=
1A
1:
08
0)
1;
1C
0B
17
1(
#445000
1!
19
0*
#450000
0!
09
1*
1=
0A
0:
18
1)
0;
#455000
1!
19
0*
#460000
0!
09
1*
0=
1A
1:
08
0)
1;
0C
1B
07
0(
1E
0F
0D
16
1'
#465000
1!
19
0*
#470000
0!
09
1*
1=
0A
0:
18
1)
0;
#475000
1!
19
0*
#480000
0!
09
1*
0=
1A
1:
08
0)
1;
1C
0B
1>
0<
17
1(
1?
0E
0C
1F
1D
0>
1B
06
07
0'
0(
0?
0J
1N
0M
1G
0H
03
11
0I
0$
1"
0N
0L
1K
01
02
0"
0#
#485000
1!
19
0*
1H
1<
1I
#490000
0!
09
1*
1=
0A
0:
18
1)
0;
#495000
1!
19
0*
#500000
0!
09
1*
0=
1A
1:
08
0)
1;
1C
0B
17
1(
#505000
1!
19
0*
#510000
0!
09
1*
1=
0A
0:
18
1)
0;
#515000
1!
19
0*
#520000
0!
09
1*
0=
1A
1:
08
0)
1;
0C
1B
07
0(
1E
0F
0D
16
1'
#525000
1!
19
0*
#530000
0!
09
1*
1=
0A
0:
18
1)
0;
#535000
1!
19
0*
#540000
0!
09
1*
0=
1A
1:
08
0)
1;
1C
0B
1>
0<
17
1(
1?
0E
0C
1F
1D
0>
1B
06
07
0'
0(
0?
1J
0G
13
1$
#545000
1!
19
0*
1<
#550000
0!
09
1*
1=
0A
0:
18
1)
0;
#555000
1!
19
0*
#560000
0!
09
1*
0=
1A
1:
08
0)
1;
1C
0B
17
1(
#565000
1!
19
0*
#570000
0!
09
1*
1=
0A
0:
18
1)
0;
#575000
1!
19
0*
#580000
0!
09
1*
0=
1A
1:
08
0)
1;
0C
1B
07
0(
1E
0F
0D
16
1'
#585000
1!
19
0*
#590000
0!
09
1*
1=
0A
0:
18
1)
0;
#595000
1!
19
0*
#600000
0!
09
1*
0=
1A
1:
08
0)
1;
1C
0B
1>
0<
17
1(
1?
0E
0C
1F
1D
0>
1B
06
07
0'
0(
0?
0J
1G
03
0$
1L
0K
12
1#
#605000
1!
19
0*
1<
#610000
0!
09
1*
1=
0A
0:
18
1)
0;
#615000
1!
19
0*
#620000
0!
09
1*
0=
1A
1:
08
0)
1;
1C
0B
17
1(
#625000
1!
19
0*
#630000
0!
09
1*
1=
0A
0:
18
1)
0;
#635000
1!
19
0*
#640000
0!
09
1*
0=
1A
1:
08
0)
1;
0C
1B
07
0(
1E
0F
0D
16
1'
#645000
1!
19
0*
#650000
0!
09
1*
1=
0A
0:
18
1)
0;
#655000
1!
19
0*
#660000
0!
09
1*
0=
1A
1:
08
0)
1;
1C
0B
1>
0<
17
1(
1?
0E
0C
1F
1D
0>
1B
06
07
0'
0(
0?
1J
1M
0G
13
1$
#665000
1!
19
0*
1<
#670000
0!
09
1*
1=
0A
0:
18
1)
0;
#675000
1!
19
0*
#680000
0!
09
1*
0=
1A
1:
08
0)
1;
1C
0B
17
1(
#685000
1!
19
0*
#690000
0!
09
1*
1=
0A
0:
18
1)
0;
#695000
1!
19
0*
#700000
0!
09
1*
0=
1A
1:
08
0)
1;
0C
1B
07
0(
1E
0F
0D
16
1'
#705000
1!
19
0*
#710000
0!
09
1*
1=
0A
0:
18
1)
0;
#715000
1!
19
0*
#720000
0!
09
1*
0=
1A
1:
08
0)
1;
1C
0B
1>
0<
17
1(
1?
0E
0C
1F
1D
0>
1B
06
07
0'
0(
0?
0J
1N
0M
1G
0H
03
11
0I
0$
1"
0N
0L
1K
01
02
0"
0#
#725000
1!
19
0*
1H
1<
1I
#730000
0!
09
1*
1=
0A
0:
18
1)
0;
#735000
1!
19
0*
#740000
0!
09
1*
0=
1A
1:
08
0)
1;
1C
0B
17
1(
#745000
1!
19
0*
#750000
0!
09
1*
1=
0A
0:
18
1)
0;
#755000
1!
19
0*
#760000
0!
09
1*
0=
1A
1:
08
0)
1;
0C
1B
07
0(
1E
0F
0D
16
1'
#765000
1!
19
0*
#770000
0!
09
1*
1=
0A
0:
18
1)
0;
#775000
1!
19
0*
#780000
0!
09
1*
0=
1A
1:
08
0)
1;
1C
0B
1>
0<
17
1(
1?
0E
0C
1F
1D
0>
1B
06
07
0'
0(
0?
1J
0G
13
1$
#785000
1!
19
0*
1<
#790000
0!
09
1*
1=
0A
0:
18
1)
0;
#795000
1!
19
0*
#800000
0!
09
1*
0=
1A
1:
08
0)
1;
1C
0B
17
1(
#805000
1!
19
0*
#810000
0!
09
1*
1=
0A
0:
18
1)
0;
#815000
1!
19
0*
#820000
0!
09
1*
0=
1A
1:
08
0)
1;
0C
1B
07
0(
1E
0F
0D
16
1'
#825000
1!
19
0*
#830000
0!
09
1*
1=
0A
0:
18
1)
0;
#835000
1!
19
0*
#840000
0!
09
1*
0=
1A
1:
08
0)
1;
1C
0B
1>
0<
17
1(
1?
0E
0C
1F
1D
0>
1B
06
07
0'
0(
0?
0J
1G
03
0$
1L
0K
12
1#
#845000
1!
19
0*
1<
#850000
0!
09
1*
1=
0A
0:
18
1)
0;
#855000
1!
19
0*
#860000
0!
09
1*
0=
1A
1:
08
0)
1;
1C
0B
17
1(
#865000
1!
19
0*
#870000
0!
09
1*
1=
0A
0:
18
1)
0;
#875000
1!
19
0*
#880000
0!
09
1*
0=
1A
1:
08
0)
1;
0C
1B
07
0(
1E
0F
0D
16
1'
#885000
1!
19
0*
#890000
0!
09
1*
1=
0A
0:
18
1)
0;
#895000
1!
19
0*
#900000
0!
09
1*
0=
1A
1:
08
0)
1;
1C
0B
1>
0<
17
1(
1?
0E
0C
1F
1D
0>
1B
06
07
0'
0(
0?
1J
1M
0G
13
1$
#905000
1!
19
0*
1<
#910000
0!
09
1*
1=
0A
0:
18
1)
0;
#915000
1!
19
0*
#920000
0!
09
1*
0=
1A
1:
08
0)
1;
1C
0B
17
1(
#925000
1!
19
0*
#930000
0!
09
1*
1=
0A
0:
18
1)
0;
#935000
1!
19
0*
#940000
0!
09
1*
0=
1A
1:
08
0)
1;
0C
1B
07
0(
1E
0F
0D
16
1'
#945000
1!
19
0*
#950000
0!
09
1*
1=
0A
0:
18
1)
0;
#955000
1!
19
0*
#960000
0!
09
1*
0=
1A
1:
08
0)
1;
1C
0B
1>
0<
17
1(
1?
0E
0C
1F
1D
0>
1B
06
07
0'
0(
0?
0J
1N
0M
1G
0H
03
11
0I
0$
1"
0N
0L
1K
01
02
0"
0#
#965000
1!
19
0*
1H
1<
1I
#970000
0!
09
1*
1=
0A
0:
18
1)
0;
#975000
1!
19
0*
#980000
0!
09
1*
0=
1A
1:
08
0)
1;
1C
0B
17
1(
#985000
1!
19
0*
#990000
0!
09
1*
1=
0A
0:
18
1)
0;
#995000
1!
19
0*
