大一（下）/数字电路与逻辑设计/实验报告/实验源文件/logicgate_test/simulation/qsim/logicgate.msim.vcd
$comment
	File created using the following command:
		vcd file logicgate.msim.vcd -direction
$end
$date
	Thu Apr 23 20:52:16 2020
$end
$version
	ModelSim Version 10.1d
$end
$timescale
	1ps
$end
$scope module four_xorGate_vlg_vec_tst $end
$var reg 1 ! A $end
$var reg 1 " B $end
$var reg 1 # C $end
$var reg 1 $ D $end
$var wire 1 % pin_name1 $end
$var wire 1 & sampler $end
$scope module i1 $end
$var wire 1 ' gnd $end
$var wire 1 ( vcc $end
$var wire 1 ) unknown $end
$var tri1 1 * devclrn $end
$var tri1 1 + devpor $end
$var tri1 1 , devoe $end
$var wire 1 - pin_name1~output_o $end
$var wire 1 . B~input_o $end
$var wire 1 / C~input_o $end
$var wire 1 0 A~input_o $end
$var wire 1 1 D~input_o $end
$var wire 1 2 inst5~0_combout $end
$upscope $end
$upscope $end
$enddefinitions $end
#0
$dumpvars
0!
0"
0#
0$
x%
x&
0'
1(
x)
1*
1+
1,
x-
0.
0/
00
01
x2
$end
#4086
02
#8491
0-
0%
#10000
1!
0&
#11000
10
#14739
12
#19310
1-
1%
#20000
1"
0!
1&
#21010
1.
#21038
00
#24504
02
#24974
12
#30000
1!
0&
#31000
10
#34728
02
#39133
0-
0%
#40000
1#
0"
0!
1&
#41020
1/
#41038
00
#41048
0.
#44974
12
#49545
1-
1%
#50000
1!
0&
#51000
10
#54728
02
#59133
0-
0%
#60000
1"
0!
1&
#61010
1.
#61038
00
#64494
12
#64963
02
#70000
1!
0&
#71000
10
#74739
12
#79310
1-
1%
#80000
1$
0#
0"
0!
1&
#80959
11
#81038
00
#81048
0.
#81058
0/
#90000
1!
0&
#91000
10
#94728
02
#99133
0-
0%
#100000
1"
0!
1&
#101010
1.
#101038
00
#104494
12
#104963
02
#110000
1!
0&
#111000
10
#114739
12
#119310
1-
1%
#120000
1#
0"
0!
1&
#121020
1/
#121038
00
#121048
0.
#124963
02
#129368
0-
0%
#130000
1!
0&
#131000
10
#134739
12
#139310
1-
1%
#140000
1"
0!
1&
#141010
1.
#141038
00
#144504
02
#144974
12
#150000
1!
0&
#151000
10
#154728
02
#159133
0-
0%
#160000
0$
0#
0"
0!
1&
#161004
01
#161038
00
#161048
0.
#161058
0/
#170000
1!
0&
#171000
10
#174739
12
#179310
1-
1%
#180000
1"
0!
1&
#181010
1.
#181038
00
#184504
02
#184974
12
#190000
1!
0&
#191000
10
#194728
02
#199133
0-
0%
#200000
1#
0"
0!
1&
#201020
1/
#201038
00
#201048
0.
#204974
12
#209545
1-
1%
#210000
1!
0&
#211000
10
#214728
02
#219133
0-
0%
#220000
1"
0!
1&
#221010
1.
#221038
00
#224494
12
#224963
02
#230000
1!
0&
#231000
10
#234739
12
#239310
1-
1%
#240000
1$
0#
0"
0!
1&
#240959
11
#241038
00
#241048
0.
#241058
0/
#250000
1!
0&
#251000
10
#254728
02
#259133
0-
0%
#260000
1"
0!
1&
#261010
1.
#261038
00
#264494
12
#264963
02
#270000
1!
0&
#271000
10
#274739
12
#279310
1-
1%
#280000
1#
0"
0!
1&
#281020
1/
#281038
00
#281048
0.
#284963
02
#289368
0-
0%
#290000
1!
0&
#291000
10
#294739
12
#299310
1-
1%
#300000
1"
0!
1&
#301010
1.
#301038
00
#304504
02
#304974
12
#310000
1!
0&
#311000
10
#314728
02
#319133
0-
0%
#320000
0$
0#
0"
0!
1&
#321004
01
#321038
00
#321048
0.
#321058
0/
#330000
1!
0&
#331000
10
#334739
12
#339310
1-
1%
#340000
1"
0!
1&
#341010
1.
#341038
00
#344504
02
#344974
12
#350000
1!
0&
#351000
10
#354728
02
#359133
0-
0%
#360000
1#
0"
0!
1&
#361020
1/
#361038
00
#361048
0.
#364974
12
#369545
1-
1%
#370000
1!
0&
#371000
10
#374728
02
#379133
0-
0%
#380000
1"
0!
1&
#381010
1.
#381038
00
#384494
12
#384963
02
#390000
1!
0&
#391000
10
#394739
12
#399310
1-
1%
#400000
1$
0#
0"
0!
1&
#400959
11
#401038
00
#401048
0.
#401058
0/
#410000
1!
0&
#411000
10
#414728
02
#419133
0-
0%
#420000
1"
0!
1&
#421010
1.
#421038
00
#424494
12
#424963
02
#430000
1!
0&
#431000
10
#434739
12
#439310
1-
1%
#440000
1#
0"
0!
1&
#441020
1/
#441038
00
#441048
0.
#444963
02
#449368
0-
0%
#450000
1!
0&
#451000
10
#454739
12
#459310
1-
1%
#460000
1"
0!
1&
#461010
1.
#461038
00
#464504
02
#464974
12
#470000
1!
0&
#471000
10
#474728
02
#479133
0-
0%
#480000
0$
0#
0"
0!
1&
#481004
01
#481038
00
#481048
0.
#481058
0/
#490000
1!
0&
#491000
10
#494739
12
#499310
1-
1%
#500000
1"
0!
1&
#501010
1.
#501038
00
#504504
02
#504974
12
#510000
1!
0&
#511000
10
#514728
02
#519133
0-
0%
#520000
1#
0"
0!
1&
#521020
1/
#521038
00
#521048
0.
#524974
12
#529545
1-
1%
#530000
1!
0&
#531000
10
#534728
02
#539133
0-
0%
#540000
1"
0!
1&
#541010
1.
#541038
00
#544494
12
#544963
02
#550000
1!
0&
#551000
10
#554739
12
#559310
1-
1%
#560000
1$
0#
0"
0!
1&
#560959
11
#561038
00
#561048
0.
#561058
0/
#570000
1!
0&
#571000
10
#574728
02
#579133
0-
0%
#580000
1"
0!
1&
#581010
1.
#581038
00
#584494
12
#584963
02
#590000
1!
0&
#591000
10
#594739
12
#599310
1-
1%
#600000
1#
0"
0!
1&
#601020
1/
#601038
00
#601048
0.
#604963
02
#609368
0-
0%
#610000
1!
0&
#611000
10
#614739
12
#619310
1-
1%
#620000
1"
0!
1&
#621010
1.
#621038
00
#624504
02
#624974
12
#630000
1!
0&
#631000
10
#634728
02
#639133
0-
0%
#640000
0$
0#
0"
0!
1&
#641004
01
#641038
00
#641048
0.
#641058
0/
#650000
1!
0&
#651000
10
#654739
12
#659310
1-
1%
#660000
1"
0!
1&
#661010
1.
#661038
00
#664504
02
#664974
12
#670000
1!
0&
#671000
10
#674728
02
#679133
0-
0%
#680000
1#
0"
0!
1&
#681020
1/
#681038
00
#681048
0.
#684974
12
#689545
1-
1%
#690000
1!
0&
#691000
10
#694728
02
#699133
0-
0%
#700000
1"
0!
1&
#701010
1.
#701038
00
#704494
12
#704963
02
#710000
1!
0&
#711000
10
#714739
12
#719310
1-
1%
#720000
1$
0#
0"
0!
1&
#720959
11
#721038
00
#721048
0.
#721058
0/
#730000
1!
0&
#731000
10
#734728
02
#739133
0-
0%
#740000
1"
0!
1&
#741010
1.
#741038
00
#744494
12
#744963
02
#750000
1!
0&
#751000
10
#754739
12
#759310
1-
1%
#760000
1#
0"
0!
1&
#761020
1/
#761038
00
#761048
0.
#764963
02
#769368
0-
0%
#770000
1!
0&
#771000
10
#774739
12
#779310
1-
1%
#780000
1"
0!
1&
#781010
1.
#781038
00
#784504
02
#784974
12
#790000
1!
0&
#791000
10
#794728
02
#799133
0-
0%
#800000
0$
0#
0"
0!
1&
#801004
01
#801038
00
#801048
0.
#801058
0/
#810000
1!
0&
#811000
10
#814739
12
#819310
1-
1%
#820000
1"
0!
1&
#821010
1.
#821038
00
#824504
02
#824974
12
#830000
1!
0&
#831000
10
#834728
02
#839133
0-
0%
#840000
1#
0"
0!
1&
#841020
1/
#841038
00
#841048
0.
#844974
12
#849545
1-
1%
#850000
1!
0&
#851000
10
#854728
02
#859133
0-
0%
#860000
1"
0!
1&
#861010
1.
#861038
00
#864494
12
#864963
02
#870000
1!
0&
#871000
10
#874739
12
#879310
1-
1%
#880000
1$
0#
0"
0!
1&
#880959
11
#881038
00
#881048
0.
#881058
0/
#890000
1!
0&
#891000
10
#894728
02
#899133
0-
0%
#900000
1"
0!
1&
#901010
1.
#901038
00
#904494
12
#904963
02
#910000
1!
0&
#911000
10
#914739
12
#919310
1-
1%
#920000
1#
0"
0!
1&
#921020
1/
#921038
00
#921048
0.
#924963
02
#929368
0-
0%
#930000
1!
0&
#931000
10
#934739
12
#939310
1-
1%
#940000
1"
0!
1&
#941010
1.
#941038
00
#944504
02
#944974
12
#950000
1!
0&
#951000
10
#954728
02
#959133
0-
0%
#960000
0$
0#
0"
0!
1&
#961004
01
#961038
00
#961048
0.
#961058
0/
#970000
1!
0&
#971000
10
#974739
12
#979310
1-
1%
#980000
1"
0!
1&
#981010
1.
#981038
00
#984504
02
#984974
12
#990000
1!
0&
#991000
10
#994728
02
#999133
0-
0%
