大一（下）/数字电路与逻辑设计/实验报告/实验源文件/experiment_9/simulation/qsim/experiment_9.msim.vcd
$comment
	File created using the following command:
		vcd file experiment_9.msim.vcd -direction
$end
$date
	Wed May 20 21:42:26 2020
$end
$version
	ModelSim Version 10.1d
$end
$timescale
	1ps
$end
$scope module lab3_vlg_vec_tst $end
$var reg 1 ! CLK $end
$var reg 1 " S0 $end
$var reg 1 # S1 $end
$var wire 1 $ Q [3] $end
$var wire 1 % Q [2] $end
$var wire 1 & Q [1] $end
$var wire 1 ' Q [0] $end
$var wire 1 ( sampler $end
$scope module i1 $end
$var wire 1 ) gnd $end
$var wire 1 * vcc $end
$var wire 1 + unknown $end
$var tri1 1 , devclrn $end
$var tri1 1 - devpor $end
$var tri1 1 . devoe $end
$var wire 1 / Q[3]~output_o $end
$var wire 1 0 Q[2]~output_o $end
$var wire 1 1 Q[1]~output_o $end
$var wire 1 2 Q[0]~output_o $end
$var wire 1 3 CLK~input_o $end
$var wire 1 4 CLK~inputclkctrl_outclk $end
$var wire 1 5 S1~input_o $end
$var wire 1 6 S0~input_o $end
$var wire 1 7 inst|37~0_combout $end
$var wire 1 8 inst|37~1_combout $end
$var wire 1 9 inst|41~q $end
$var wire 1 : inst|36~0_combout $end
$var wire 1 ; inst|34~1_combout $end
$var wire 1 < inst|40~q $end
$var wire 1 = inst|35~0_combout $end
$var wire 1 > inst|39~q $end
$var wire 1 ? inst|34~0_combout $end
$var wire 1 @ inst|38~q $end
$upscope $end
$upscope $end
$enddefinitions $end
#0
$dumpvars
0!
1"
1#
0'
0&
0%
0$
x(
0)
1*
x+
1,
1-
1.
0/
00
01
02
03
04
15
16
17
18
09
1:
1;
0<
1=
0>
0?
0@
$end
#5000
1!
13
14
0(
1>
1<
19
10
11
12
1%
1&
1'
#10000
0#
0!
05
03
04
1(
1?
08
07
#15000
1!
13
14
0(
1@
09
0:
1/
02
1$
0'
#20000
0!
03
04
1(
#25000
1!
13
14
0(
0<
0=
17
01
0&
#30000
0!
03
04
1(
#35000
1!
13
14
0(
0>
0?
18
00
0%
#40000
0!
03
04
1(
#45000
1!
13
14
0(
0@
19
1:
07
0/
12
0$
1'
08
#50000
0!
03
04
1(
#55000
1!
13
14
0(
1<
09
1=
0:
11
02
1&
0'
#60000
0!
03
04
1(
#65000
1!
13
14
0(
1>
0<
1?
0=
17
10
01
1%
0&
#70000
0!
03
04
1(
#75000
1!
13
14
0(
1@
0>
0?
18
1/
00
1$
0%
#80000
0!
03
04
1(
#85000
1!
13
14
0(
0@
19
1:
07
0/
12
0$
1'
08
#90000
0!
03
04
1(
#95000
1!
13
14
0(
1<
09
1=
0:
11
02
1&
0'
#100000
0!
03
04
1(
#105000
1!
13
14
0(
1>
0<
1?
0=
17
10
01
1%
0&
#110000
0!
03
04
1(
#115000
1!
13
14
0(
1@
0>
0?
18
1/
00
1$
0%
#120000
0!
03
04
1(
#125000
1!
13
14
0(
0@
19
1:
07
0/
12
0$
1'
08
#130000
0!
03
04
1(
#135000
1!
13
14
0(
1<
09
1=
0:
11
02
1&
0'
#140000
0!
03
04
1(
#145000
1!
13
14
0(
1>
0<
1?
0=
17
10
01
1%
0&
#150000
0!
03
04
1(
#155000
1!
13
14
0(
1@
0>
0?
18
1/
00
1$
0%
#160000
0!
03
04
1(
#165000
1!
13
14
0(
0@
19
1:
07
0/
12
0$
1'
08
#170000
0!
03
04
1(
#175000
1!
13
14
0(
1<
09
1=
0:
11
02
1&
0'
#180000
0!
03
04
1(
#185000
1!
13
14
0(
1>
0<
1?
0=
17
10
01
1%
0&
#190000
0!
03
04
1(
#195000
1!
13
14
0(
1@
0>
0?
18
1/
00
1$
0%
#200000
0!
03
04
1(
#205000
1!
13
14
0(
0@
19
1:
07
0/
12
0$
1'
08
#210000
0!
03
04
1(
#215000
1!
13
14
0(
1<
09
1=
0:
11
02
1&
0'
#220000
0!
03
04
1(
#225000
1!
13
14
0(
1>
0<
1?
0=
17
10
01
1%
0&
#230000
0!
03
04
1(
#235000
1!
13
14
0(
1@
0>
0?
18
1/
00
1$
0%
#240000
0!
03
04
1(
#245000
1!
13
14
0(
0@
19
1:
07
0/
12
0$
1'
08
#250000
0!
03
04
1(
#255000
1!
13
14
0(
1<
09
1=
0:
11
02
1&
0'
#260000
0!
03
04
1(
#265000
1!
13
14
0(
1>
0<
1?
0=
17
10
01
1%
0&
#270000
0!
03
04
1(
#275000
1!
13
14
0(
1@
0>
0?
18
1/
00
1$
0%
#280000
0!
03
04
1(
#285000
1!
13
14
0(
0@
19
1:
07
0/
12
0$
1'
08
#290000
0!
03
04
1(
#295000
1!
13
14
0(
1<
09
1=
0:
11
02
1&
0'
#300000
0!
03
04
1(
#305000
1!
13
14
0(
1>
0<
1?
0=
17
10
01
1%
0&
#310000
0!
03
04
1(
#315000
1!
13
14
0(
1@
0>
0?
18
1/
00
1$
0%
#320000
0!
03
04
1(
#325000
1!
13
14
0(
0@
19
1:
07
0/
12
0$
1'
08
#330000
0!
03
04
1(
#335000
1!
13
14
0(
1<
09
1=
0:
11
02
1&
0'
#340000
0!
03
04
1(
#345000
1!
13
14
0(
1>
0<
1?
0=
17
10
01
1%
0&
#350000
0!
03
04
1(
#355000
1!
13
14
0(
1@
0>
0?
18
1/
00
1$
0%
#360000
0!
03
04
1(
#365000
1!
13
14
0(
0@
19
1:
07
0/
12
0$
1'
08
#370000
0!
03
04
1(
#375000
1!
13
14
0(
1<
09
1=
0:
11
02
1&
0'
#380000
0!
03
04
1(
#385000
1!
13
14
0(
1>
0<
1?
0=
17
10
01
1%
0&
#390000
0!
03
04
1(
#395000
1!
13
14
0(
1@
0>
0?
18
1/
00
1$
0%
#400000
0!
03
04
1(
#405000
1!
13
14
0(
0@
19
1:
07
0/
12
0$
1'
08
#410000
0!
03
04
1(
#415000
1!
13
14
0(
1<
09
1=
0:
11
02
1&
0'
#420000
0!
03
04
1(
#425000
1!
13
14
0(
1>
0<
1?
0=
17
10
01
1%
0&
#430000
0!
03
04
1(
#435000
1!
13
14
0(
1@
0>
0?
18
1/
00
1$
0%
#440000
0!
03
04
1(
#445000
1!
13
14
0(
0@
19
1:
07
0/
12
0$
1'
08
#450000
0!
03
04
1(
#455000
1!
13
14
0(
1<
09
1=
0:
11
02
1&
0'
#460000
0!
03
04
1(
#465000
1!
13
14
0(
1>
0<
1?
0=
17
10
01
1%
0&
#470000
0!
03
04
1(
#475000
1!
13
14
0(
1@
0>
0?
18
1/
00
1$
0%
#480000
0!
03
04
1(
#485000
1!
13
14
0(
0@
19
1:
07
0/
12
0$
1'
08
#490000
0!
03
04
1(
#495000
1!
13
14
0(
1<
09
1=
0:
11
02
1&
0'
#500000
0!
03
04
1(
#505000
1!
13
14
0(
1>
0<
1?
0=
17
10
01
1%
0&
#510000
0!
03
04
1(
#515000
1!
13
14
0(
1@
0>
0?
18
1/
00
1$
0%
#520000
0!
03
04
1(
#525000
1!
13
14
0(
0@
19
1:
07
0/
12
0$
1'
08
#530000
0!
03
04
1(
#535000
1!
13
14
0(
1<
09
1=
0:
11
02
1&
0'
#540000
0!
03
04
1(
#545000
1!
13
14
0(
1>
0<
1?
0=
17
10
01
1%
0&
#550000
0!
03
04
1(
#555000
1!
13
14
0(
1@
0>
0?
18
1/
00
1$
0%
#560000
0!
03
04
1(
#565000
1!
13
14
0(
0@
19
1:
07
0/
12
0$
1'
08
#570000
0!
03
04
1(
#575000
1!
13
14
0(
1<
09
1=
0:
11
02
1&
0'
#580000
0!
03
04
1(
#585000
1!
13
14
0(
1>
0<
1?
0=
17
10
01
1%
0&
#590000
0!
03
04
1(
#595000
1!
13
14
0(
1@
0>
0?
18
1/
00
1$
0%
#600000
0!
03
04
1(
#605000
1!
13
14
0(
0@
19
1:
07
0/
12
0$
1'
08
#610000
0!
03
04
1(
#615000
1!
13
14
0(
1<
09
1=
0:
11
02
1&
0'
#620000
0!
03
04
1(
#625000
1!
13
14
0(
1>
0<
1?
0=
17
10
01
1%
0&
#630000
0!
03
04
1(
#635000
1!
13
14
0(
1@
0>
0?
18
1/
00
1$
0%
#640000
0!
03
04
1(
#645000
1!
13
14
0(
0@
19
1:
07
0/
12
0$
1'
08
#650000
0!
03
04
1(
#655000
1!
13
14
0(
1<
09
1=
0:
11
02
1&
0'
#660000
0!
03
04
1(
#665000
1!
13
14
0(
1>
0<
1?
0=
17
10
01
1%
0&
#670000
0!
03
04
1(
#675000
1!
13
14
0(
1@
0>
0?
18
1/
00
1$
0%
#680000
0!
03
04
1(
#685000
1!
13
14
0(
0@
19
1:
07
0/
12
0$
1'
08
#690000
0!
03
04
1(
#695000
1!
13
14
0(
1<
09
1=
0:
11
02
1&
0'
#700000
0!
03
04
1(
#705000
1!
13
14
0(
1>
0<
1?
0=
17
10
01
1%
0&
#710000
0!
03
04
1(
#715000
1!
13
14
0(
1@
0>
0?
18
1/
00
1$
0%
#720000
0!
03
04
1(
#725000
1!
13
14
0(
0@
19
1:
07
0/
12
0$
1'
08
#730000
0!
03
04
1(
#735000
1!
13
14
0(
1<
09
1=
0:
11
02
1&
0'
#740000
0!
03
04
1(
#745000
1!
13
14
0(
1>
0<
1?
0=
17
10
01
1%
0&
#750000
0!
03
04
1(
#755000
1!
13
14
0(
1@
0>
0?
18
1/
00
1$
0%
#760000
0!
03
04
1(
#765000
1!
13
14
0(
0@
19
1:
07
0/
12
0$
1'
08
#770000
0!
03
04
1(
#775000
1!
13
14
0(
1<
09
1=
0:
11
02
1&
0'
#780000
0!
03
04
1(
#785000
1!
13
14
0(
1>
0<
1?
0=
17
10
01
1%
0&
#790000
0!
03
04
1(
#795000
1!
13
14
0(
1@
0>
0?
18
1/
00
1$
0%
#800000
0!
03
04
1(
#805000
1!
13
14
0(
0@
19
1:
07
0/
12
0$
1'
08
#810000
0!
03
04
1(
#815000
1!
13
14
0(
1<
09
1=
0:
11
02
1&
0'
#820000
0!
03
04
1(
#825000
1!
13
14
0(
1>
0<
1?
0=
17
10
01
1%
0&
#830000
0!
03
04
1(
#835000
1!
13
14
0(
1@
0>
0?
18
1/
00
1$
0%
#840000
0!
03
04
1(
#845000
1!
13
14
0(
0@
19
1:
07
0/
12
0$
1'
08
#850000
0!
03
04
1(
#855000
1!
13
14
0(
1<
09
1=
0:
11
02
1&
0'
#860000
0!
03
04
1(
#865000
1!
13
14
0(
1>
0<
1?
0=
17
10
01
1%
0&
#870000
0!
03
04
1(
#875000
1!
13
14
0(
1@
0>
0?
18
1/
00
1$
0%
#880000
0!
03
04
1(
#885000
1!
13
14
0(
0@
19
1:
07
0/
12
0$
1'
08
#890000
0!
03
04
1(
#895000
1!
13
14
0(
1<
09
1=
0:
11
02
1&
0'
#900000
0!
03
04
1(
#905000
1!
13
14
0(
1>
0<
1?
0=
17
10
01
1%
0&
#910000
0!
03
04
1(
#915000
1!
13
14
0(
1@
0>
0?
18
1/
00
1$
0%
#920000
0!
03
04
1(
#925000
1!
13
14
0(
0@
19
1:
07
0/
12
0$
1'
08
#930000
0!
03
04
1(
#935000
1!
13
14
0(
1<
09
1=
0:
11
02
1&
0'
#940000
0!
03
04
1(
#945000
1!
13
14
0(
1>
0<
1?
0=
17
10
01
1%
0&
#950000
0!
03
04
1(
#955000
1!
13
14
0(
1@
0>
0?
18
1/
00
1$
0%
#960000
0!
03
04
1(
#965000
1!
13
14
0(
0@
19
1:
07
0/
12
0$
1'
08
#970000
0!
03
04
1(
#975000
1!
13
14
0(
1<
09
1=
0:
11
02
1&
0'
#980000
0!
03
04
1(
#985000
1!
13
14
0(
1>
0<
1?
0=
17
10
01
1%
0&
#990000
0!
03
04
1(
#995000
1!
13
14
0(
1@
0>
0?
18
1/
00
1$
0%
