大一（下）/数字电路与逻辑设计/实验报告/实验源文件/experiment_12/simulation/qsim/experiment_12.msim.vcd
$comment
	File created using the following command:
		vcd file experiment_12.msim.vcd -direction
$end
$date
	Fri May 29 16:15:13 2020
$end
$version
	ModelSim Version 10.1d
$end
$timescale
	1ps
$end
$scope module block2_vlg_vec_tst $end
$var reg 4 ! a [3:0] $end
$var reg 4 " b [3:0] $end
$var reg 1 # clk $end
$var wire 1 $ q [7] $end
$var wire 1 % q [6] $end
$var wire 1 & q [5] $end
$var wire 1 ' q [4] $end
$var wire 1 ( q [3] $end
$var wire 1 ) q [2] $end
$var wire 1 * q [1] $end
$var wire 1 + q [0] $end
$var wire 1 , sampler $end
$scope module i1 $end
$var wire 1 - gnd $end
$var wire 1 . vcc $end
$var wire 1 / unknown $end
$var tri1 1 0 devclrn $end
$var tri1 1 1 devpor $end
$var tri1 1 2 devoe $end
$var wire 1 3 q[7]~output_o $end
$var wire 1 4 q[6]~output_o $end
$var wire 1 5 q[5]~output_o $end
$var wire 1 6 q[4]~output_o $end
$var wire 1 7 q[3]~output_o $end
$var wire 1 8 q[2]~output_o $end
$var wire 1 9 q[1]~output_o $end
$var wire 1 : q[0]~output_o $end
$var wire 1 ; clk~input_o $end
$var wire 1 < clk~inputclkctrl_outclk $end
$var wire 1 = a[0]~input_o $end
$var wire 1 > a[1]~input_o $end
$var wire 1 ? a[2]~input_o $end
$var wire 1 @ a[3]~input_o $end
$var wire 1 A b[0]~input_o $end
$var wire 1 B b[1]~input_o $end
$var wire 1 C b[2]~input_o $end
$var wire 1 D b[3]~input_o $end
$var wire 1 E inst|altsyncram_component|auto_generated|q_a [7] $end
$var wire 1 F inst|altsyncram_component|auto_generated|q_a [6] $end
$var wire 1 G inst|altsyncram_component|auto_generated|q_a [5] $end
$var wire 1 H inst|altsyncram_component|auto_generated|q_a [4] $end
$var wire 1 I inst|altsyncram_component|auto_generated|q_a [3] $end
$var wire 1 J inst|altsyncram_component|auto_generated|q_a [2] $end
$var wire 1 K inst|altsyncram_component|auto_generated|q_a [1] $end
$var wire 1 L inst|altsyncram_component|auto_generated|q_a [0] $end
$var wire 1 M inst|altsyncram_component|auto_generated|ram_block1a0_PORTADATAOUT_bus [17] $end
$var wire 1 N inst|altsyncram_component|auto_generated|ram_block1a0_PORTADATAOUT_bus [16] $end
$var wire 1 O inst|altsyncram_component|auto_generated|ram_block1a0_PORTADATAOUT_bus [15] $end
$var wire 1 P inst|altsyncram_component|auto_generated|ram_block1a0_PORTADATAOUT_bus [14] $end
$var wire 1 Q inst|altsyncram_component|auto_generated|ram_block1a0_PORTADATAOUT_bus [13] $end
$var wire 1 R inst|altsyncram_component|auto_generated|ram_block1a0_PORTADATAOUT_bus [12] $end
$var wire 1 S inst|altsyncram_component|auto_generated|ram_block1a0_PORTADATAOUT_bus [11] $end
$var wire 1 T inst|altsyncram_component|auto_generated|ram_block1a0_PORTADATAOUT_bus [10] $end
$var wire 1 U inst|altsyncram_component|auto_generated|ram_block1a0_PORTADATAOUT_bus [9] $end
$var wire 1 V inst|altsyncram_component|auto_generated|ram_block1a0_PORTADATAOUT_bus [8] $end
$var wire 1 W inst|altsyncram_component|auto_generated|ram_block1a0_PORTADATAOUT_bus [7] $end
$var wire 1 X inst|altsyncram_component|auto_generated|ram_block1a0_PORTADATAOUT_bus [6] $end
$var wire 1 Y inst|altsyncram_component|auto_generated|ram_block1a0_PORTADATAOUT_bus [5] $end
$var wire 1 Z inst|altsyncram_component|auto_generated|ram_block1a0_PORTADATAOUT_bus [4] $end
$var wire 1 [ inst|altsyncram_component|auto_generated|ram_block1a0_PORTADATAOUT_bus [3] $end
$var wire 1 \ inst|altsyncram_component|auto_generated|ram_block1a0_PORTADATAOUT_bus [2] $end
$var wire 1 ] inst|altsyncram_component|auto_generated|ram_block1a0_PORTADATAOUT_bus [1] $end
$var wire 1 ^ inst|altsyncram_component|auto_generated|ram_block1a0_PORTADATAOUT_bus [0] $end
$upscope $end
$upscope $end
$enddefinitions $end
#0
$dumpvars
b0 !
b0 "
0#
0+
0*
0)
0(
0'
0&
0%
0$
x,
0-
1.
x/
10
11
12
03
04
05
06
07
08
09
0:
0;
0<
0=
0>
0?
0@
0A
0B
0C
0D
0L
0K
0J
0I
0H
0G
0F
0E
0^
0]
0\
0[
0Z
0Y
0X
0W
0V
0U
0T
0S
0R
0Q
0P
0O
0N
0M
$end
#5000
1#
1;
1<
0,
#10000
b1 "
0#
1A
0;
0<
1,
#15000
1#
1;
1<
0,
#20000
b11 "
b10 "
0#
0A
1B
0;
0<
1,
#25000
1#
1;
1<
0,
#30000
b11 "
0#
1A
0;
0<
1,
#35000
1#
1;
1<
0,
#40000
b111 "
b101 "
b100 "
0#
0A
0B
1C
0;
0<
1,
#45000
1#
1;
1<
0,
#50000
b101 "
0#
1A
0;
0<
1,
#55000
1#
1;
1<
0,
#60000
b111 "
b110 "
0#
0A
1B
0;
0<
1,
#65000
1#
1;
1<
0,
#70000
b111 "
0#
1A
0;
0<
1,
#75000
1#
1;
1<
0,
#80000
b1111 "
b1011 "
b1001 "
b1000 "
0#
0A
0B
0C
1D
0;
0<
1,
#85000
1#
1;
1<
0,
#90000
b1001 "
0#
1A
0;
0<
1,
#95000
1#
1;
1<
0,
#100000
b1011 "
b1010 "
0#
0A
1B
0;
0<
1,
#105000
1#
1;
1<
0,
#110000
b1011 "
0#
1A
0;
0<
1,
#115000
1#
1;
1<
0,
#120000
b1111 "
b1101 "
b1100 "
0#
0A
0B
1C
0;
0<
1,
#125000
1#
1;
1<
0,
#130000
b1101 "
0#
1A
0;
0<
1,
#135000
1#
1;
1<
0,
#140000
b1111 "
b1110 "
0#
0A
1B
0;
0<
1,
#145000
1#
1;
1<
0,
#150000
b1111 "
0#
1A
0;
0<
1,
#155000
1#
1;
1<
0,
#160000
b1 !
b111 "
b11 "
b1 "
b0 "
0#
0A
0B
0C
0D
1=
0;
0<
1,
#165000
1#
1;
1<
0,
#170000
b1 "
0#
1A
0;
0<
1,
#175000
1#
1;
1<
0,
#180000
b11 "
b10 "
0#
0A
1B
0;
0<
1,
#185000
1#
1;
1<
0,
1^
1L
1:
1+
#190000
b11 "
0#
1A
0;
0<
1,
#195000
1#
1;
1<
0,
0^
1]
0L
1K
0:
19
0+
1*
#200000
b111 "
b101 "
b100 "
0#
0A
0B
1C
0;
0<
1,
#205000
1#
1;
1<
0,
1^
1L
1:
1+
#210000
b101 "
0#
1A
0;
0<
1,
#215000
1#
1;
1<
0,
0^
0]
1\
0L
0K
1J
0:
09
18
0+
0*
1)
#220000
b111 "
b110 "
0#
0A
1B
0;
0<
1,
#225000
1#
1;
1<
0,
1^
1L
1:
1+
#230000
b111 "
0#
1A
0;
0<
1,
#235000
1#
1;
1<
0,
0^
1]
0L
1K
0:
19
0+
1*
#240000
b1111 "
b1011 "
b1001 "
b1000 "
0#
0A
0B
0C
1D
0;
0<
1,
#245000
1#
1;
1<
0,
1^
1L
1:
1+
#250000
b1001 "
0#
1A
0;
0<
1,
#255000
1#
1;
1<
0,
0^
0]
0\
1[
0L
0K
0J
1I
0:
09
08
17
0+
0*
0)
1(
#260000
b1011 "
b1010 "
0#
0A
1B
0;
0<
1,
#265000
1#
1;
1<
0,
1^
1L
1:
1+
#270000
b1011 "
0#
1A
0;
0<
1,
#275000
1#
1;
1<
0,
0^
0[
0L
0I
0:
07
0+
0(
#280000
b1111 "
b1101 "
b1100 "
0#
0A
0B
1C
0;
0<
1,
#285000
1#
1;
1<
0,
#290000
b1101 "
0#
1A
0;
0<
1,
#295000
1#
1;
1<
0,
#300000
b1111 "
b1110 "
0#
0A
1B
0;
0<
1,
#305000
1#
1;
1<
0,
#310000
b1111 "
0#
1A
0;
0<
1,
#315000
1#
1;
1<
0,
#320000
b11 !
b10 !
b111 "
b11 "
b1 "
b0 "
0#
0A
0B
0C
0D
0=
1>
0;
0<
1,
#325000
1#
1;
1<
0,
#330000
b1 "
0#
1A
0;
0<
1,
#335000
1#
1;
1<
0,
#340000
b11 "
b10 "
0#
0A
1B
0;
0<
1,
#345000
1#
1;
1<
0,
1]
1K
19
1*
#350000
b11 "
0#
1A
0;
0<
1,
#355000
1#
1;
1<
0,
0]
1\
0K
1J
09
18
0*
1)
#360000
b111 "
b101 "
b100 "
0#
0A
0B
1C
0;
0<
1,
#365000
1#
1;
1<
0,
1]
1K
19
1*
#370000
b101 "
0#
1A
0;
0<
1,
#375000
1#
1;
1<
0,
0]
0\
1[
0K
0J
1I
09
08
17
0*
0)
1(
#380000
b111 "
b110 "
0#
0A
1B
0;
0<
1,
#385000
1#
1;
1<
0,
1]
1K
19
1*
#390000
b111 "
0#
1A
0;
0<
1,
#395000
1#
1;
1<
0,
0]
1\
0K
1J
09
18
0*
1)
#400000
b1111 "
b1011 "
b1001 "
b1000 "
0#
0A
0B
0C
1D
0;
0<
1,
#405000
1#
1;
1<
0,
1]
1K
19
1*
#410000
b1001 "
0#
1A
0;
0<
1,
#415000
1#
1;
1<
0,
0]
0\
0[
1Z
0K
0J
0I
1H
09
08
07
16
0*
0)
0(
1'
#420000
b1011 "
b1010 "
0#
0A
1B
0;
0<
1,
#425000
1#
1;
1<
0,
1]
1K
19
1*
#430000
b1011 "
0#
1A
0;
0<
1,
#435000
1#
1;
1<
0,
0]
0Z
0K
0H
09
06
0*
0'
#440000
b1111 "
b1101 "
b1100 "
0#
0A
0B
1C
0;
0<
1,
#445000
1#
1;
1<
0,
#450000
b1101 "
0#
1A
0;
0<
1,
#455000
1#
1;
1<
0,
#460000
b1111 "
b1110 "
0#
0A
1B
0;
0<
1,
#465000
1#
1;
1<
0,
#470000
b1111 "
0#
1A
0;
0<
1,
#475000
1#
1;
1<
0,
#480000
b11 !
b111 "
b11 "
b1 "
b0 "
0#
0A
0B
0C
0D
1=
0;
0<
1,
#485000
1#
1;
1<
0,
#490000
b1 "
0#
1A
0;
0<
1,
#495000
1#
1;
1<
0,
#500000
b11 "
b10 "
0#
0A
1B
0;
0<
1,
#505000
1#
1;
1<
0,
1^
1]
1L
1K
1:
19
1+
1*
#510000
b11 "
0#
1A
0;
0<
1,
#515000
1#
1;
1<
0,
0^
1\
0L
1J
0:
18
0+
1)
#520000
b111 "
b101 "
b100 "
0#
0A
0B
1C
0;
0<
1,
#525000
1#
1;
1<
0,
1^
0]
0\
1[
1L
0K
0J
1I
1:
09
08
17
1+
0*
0)
1(
#530000
b101 "
0#
1A
0;
0<
1,
#535000
1#
1;
1<
0,
0^
1\
0L
1J
0:
18
0+
1)
#540000
b111 "
b110 "
0#
0A
1B
0;
0<
1,
#545000
1#
1;
1<
0,
1^
1]
1L
1K
1:
19
1+
1*
#550000
b111 "
0#
1A
0;
0<
1,
#555000
1#
1;
1<
0,
0^
0\
0[
1Z
0L
0J
0I
1H
0:
08
07
16
0+
0)
0(
1'
#560000
b1111 "
b1011 "
b1001 "
b1000 "
0#
0A
0B
0C
1D
0;
0<
1,
#565000
1#
1;
1<
0,
1^
0]
1\
1L
0K
1J
1:
09
18
1+
0*
1)
#570000
b1001 "
0#
1A
0;
0<
1,
#575000
1#
1;
1<
0,
0^
0\
1[
0L
0J
1I
0:
08
17
0+
0)
1(
#580000
b1011 "
b1010 "
0#
0A
1B
0;
0<
1,
#585000
1#
1;
1<
0,
1^
1]
1L
1K
1:
19
1+
1*
#590000
b1011 "
0#
1A
0;
0<
1,
#595000
1#
1;
1<
0,
0^
0]
0[
0Z
0L
0K
0I
0H
0:
09
07
06
0+
0*
0(
0'
#600000
b1111 "
b1101 "
b1100 "
0#
0A
0B
1C
0;
0<
1,
#605000
1#
1;
1<
0,
#610000
b1101 "
0#
1A
0;
0<
1,
#615000
1#
1;
1<
0,
#620000
b1111 "
b1110 "
0#
0A
1B
0;
0<
1,
#625000
1#
1;
1<
0,
#630000
b1111 "
0#
1A
0;
0<
1,
#635000
1#
1;
1<
0,
#640000
b111 !
b101 !
b100 !
b111 "
b11 "
b1 "
b0 "
0#
0A
0B
0C
0D
0=
0>
1?
0;
0<
1,
#645000
1#
1;
1<
0,
#650000
b1 "
0#
1A
0;
0<
1,
#655000
1#
1;
1<
0,
#660000
b11 "
b10 "
0#
0A
1B
0;
0<
1,
#665000
1#
1;
1<
0,
1\
1J
18
1)
#670000
b11 "
0#
1A
0;
0<
1,
#675000
1#
1;
1<
0,
0\
1[
0J
1I
08
17
0)
1(
#680000
b111 "
b101 "
b100 "
0#
0A
0B
1C
0;
0<
1,
#685000
1#
1;
1<
0,
1\
1J
18
1)
#690000
b101 "
0#
1A
0;
0<
1,
#695000
1#
1;
1<
0,
0\
0[
1Z
0J
0I
1H
08
07
16
0)
0(
1'
#700000
b111 "
b110 "
0#
0A
1B
0;
0<
1,
#705000
1#
1;
1<
0,
1\
1J
18
1)
#710000
b111 "
0#
1A
0;
0<
1,
#715000
1#
1;
1<
0,
0\
1[
0J
1I
08
17
0)
1(
#720000
b1111 "
b1011 "
b1001 "
b1000 "
0#
0A
0B
0C
1D
0;
0<
1,
#725000
1#
1;
1<
0,
1\
1J
18
1)
#730000
b1001 "
0#
1A
0;
0<
1,
#735000
1#
1;
1<
0,
0\
0[
0Z
1Y
0J
0I
0H
1G
08
07
06
15
0)
0(
0'
1&
#740000
b1011 "
b1010 "
0#
0A
1B
0;
0<
1,
#745000
1#
1;
1<
0,
1\
1J
18
1)
#750000
b1011 "
0#
1A
0;
0<
1,
#755000
1#
1;
1<
0,
0\
0Y
0J
0G
08
05
0)
0&
#760000
b1111 "
b1101 "
b1100 "
0#
0A
0B
1C
0;
0<
1,
#765000
1#
1;
1<
0,
#770000
b1101 "
0#
1A
0;
0<
1,
#775000
1#
1;
1<
0,
#780000
b1111 "
b1110 "
0#
0A
1B
0;
0<
1,
#785000
1#
1;
1<
0,
#790000
b1111 "
0#
1A
0;
0<
1,
#795000
1#
1;
1<
0,
#800000
b101 !
b111 "
b11 "
b1 "
b0 "
0#
0A
0B
0C
0D
1=
0;
0<
1,
#805000
1#
1;
1<
0,
#810000
b1 "
0#
1A
0;
0<
1,
#815000
1#
1;
1<
0,
#820000
b11 "
b10 "
0#
0A
1B
0;
0<
1,
#825000
1#
1;
1<
0,
1^
1\
1L
1J
1:
18
1+
1)
#830000
b11 "
0#
1A
0;
0<
1,
#835000
1#
1;
1<
0,
0^
1]
0\
1[
0L
1K
0J
1I
0:
19
08
17
0+
1*
0)
1(
#840000
b111 "
b101 "
b100 "
0#
0A
0B
1C
0;
0<
1,
#845000
1#
1;
1<
0,
1^
1\
1L
1J
1:
18
1+
1)
#850000
b101 "
0#
1A
0;
0<
1,
#855000
1#
1;
1<
0,
0^
0]
0[
1Z
0L
0K
0I
1H
0:
09
07
16
0+
0*
0(
1'
#860000
b111 "
b110 "
0#
0A
1B
0;
0<
1,
#865000
1#
1;
1<
0,
1^
0\
1[
1L
0J
1I
1:
08
17
1+
0)
1(
#870000
b111 "
0#
1A
0;
0<
1,
#875000
1#
1;
1<
0,
0^
1]
1\
0L
1K
1J
0:
19
18
0+
1*
1)
#880000
b1111 "
b1011 "
b1001 "
b1000 "
0#
0A
0B
0C
1D
0;
0<
1,
#885000
1#
1;
1<
0,
1^
0\
0[
0Z
1Y
1L
0J
0I
0H
1G
1:
08
07
06
15
1+
0)
0(
0'
1&
#890000
b1001 "
0#
1A
0;
0<
1,
#895000
1#
1;
1<
0,
0^
0]
1[
0L
0K
1I
0:
09
17
0+
0*
1(
#900000
b1011 "
b1010 "
0#
0A
1B
0;
0<
1,
#905000
1#
1;
1<
0,
1^
1\
1L
1J
1:
18
1+
1)
#910000
b1011 "
0#
1A
0;
0<
1,
#915000
1#
1;
1<
0,
0^
0\
0[
0Y
0L
0J
0I
0G
0:
08
07
05
0+
0)
0(
0&
#920000
b1111 "
b1101 "
b1100 "
0#
0A
0B
1C
0;
0<
1,
#925000
1#
1;
1<
0,
#930000
b1101 "
0#
1A
0;
0<
1,
#935000
1#
1;
1<
0,
#940000
b1111 "
b1110 "
0#
0A
1B
0;
0<
1,
#945000
1#
1;
1<
0,
#950000
b1111 "
0#
1A
0;
0<
1,
#955000
1#
1;
1<
0,
#960000
b111 !
b110 !
b111 "
b11 "
b1 "
b0 "
0#
0A
0B
0C
0D
0=
1>
0;
0<
1,
#965000
1#
1;
1<
0,
#970000
b1 "
0#
1A
0;
0<
1,
#975000
1#
1;
1<
0,
#980000
b11 "
b10 "
0#
0A
1B
0;
0<
1,
#985000
1#
1;
1<
0,
1]
1\
1K
1J
19
18
1*
1)
#990000
b11 "
0#
1A
0;
0<
1,
#995000
1#
1;
1<
0,
0]
1[
0K
1I
09
17
0*
1(
