大一（下）/数字电路与逻辑设计/实验报告/实验源文件/experiment_16/simulation/qsim/experiment_16.msim.vcd
$comment
	File created using the following command:
		vcd file experiment_16.msim.vcd -direction
$end
$date
	Mon Jun 15 17:47:04 2020
$end
$version
	ModelSim Version 10.1d
$end
$timescale
	1ps
$end
$scope module Buzzer_Clock_Simulation_vlg_vec_tst $end
$var reg 1 ! Clock $end
$var reg 8 " Set_H [7:0] $end
$var reg 8 # Set_M [7:0] $end
$var reg 8 $ Set_S [7:0] $end
$var reg 1 % ST $end
$var wire 1 & Buzzer $end
$var wire 1 ' sampler $end
$scope module i1 $end
$var wire 1 ( gnd $end
$var wire 1 ) vcc $end
$var wire 1 * unknown $end
$var tri1 1 + devclrn $end
$var tri1 1 , devpor $end
$var tri1 1 - devoe $end
$var wire 1 . Buzzer~output_o $end
$var wire 1 / ST~input_o $end
$var wire 1 0 Clock~input_o $end
$var wire 1 1 inst1|inst|inst|7~0_combout $end
$var wire 1 2 inst1|inst|inst|7~q $end
$var wire 1 3 inst1|inst|inst|20~combout $end
$var wire 1 4 inst1|inst|inst|6~0_combout $end
$var wire 1 5 inst1|inst|inst|6~q $end
$var wire 1 6 inst1|inst|inst|5~0_combout $end
$var wire 1 7 inst1|inst|inst|5~q $end
$var wire 1 8 inst1|inst|inst|3~0_combout $end
$var wire 1 9 inst1|inst|inst|3~feeder_combout $end
$var wire 1 : inst1|inst|inst|3~q $end
$var wire 1 ; inst1|inst|inst|34~0_combout $end
$var wire 1 < inst1|inst|inst|34~feeder_combout $end
$var wire 1 = inst1|inst|inst|34~q $end
$var wire 1 > inst1|inst|inst|31~0_combout $end
$var wire 1 ? inst1|inst|inst|31~feeder_combout $end
$var wire 1 @ inst1|inst|inst|31~q $end
$var wire 1 A inst1|inst|inst|29~combout $end
$var wire 1 B inst1|inst|inst|33~0_combout $end
$var wire 1 C inst1|inst|inst|33~feeder_combout $end
$var wire 1 D inst1|inst|inst|33~q $end
$var wire 1 E inst1|inst|inst|32~0_combout $end
$var wire 1 F inst1|inst|inst|32~q $end
$var wire 1 G inst1|inst|inst6|inst1~1_combout $end
$var wire 1 H inst1|inst3|inst|7~0_combout $end
$var wire 1 I inst1|inst3|inst|7~feeder_combout $end
$var wire 1 J inst1|inst3|inst|7~q $end
$var wire 1 K inst1|inst3|inst|20~combout $end
$var wire 1 L inst1|inst3|inst|6~0_combout $end
$var wire 1 M inst1|inst3|inst|6~feeder_combout $end
$var wire 1 N inst1|inst3|inst|6~q $end
$var wire 1 O inst1|inst3|inst|5~0_combout $end
$var wire 1 P inst1|inst3|inst|5~q $end
$var wire 1 Q inst1|inst3|inst|3~0_combout $end
$var wire 1 R inst1|inst3|inst|3~q $end
$var wire 1 S inst1|inst3|inst|34~0_combout $end
$var wire 1 T inst1|inst3|inst|34~q $end
$var wire 1 U inst1|inst3|inst|31~0_combout $end
$var wire 1 V inst1|inst3|inst|31~feeder_combout $end
$var wire 1 W inst1|inst3|inst|31~q $end
$var wire 1 X inst1|inst3|inst|29~combout $end
$var wire 1 Y inst1|inst3|inst|33~0_combout $end
$var wire 1 Z inst1|inst3|inst|33~feeder_combout $end
$var wire 1 [ inst1|inst3|inst|33~q $end
$var wire 1 \ inst1|inst3|inst|32~0_combout $end
$var wire 1 ] inst1|inst3|inst|32~q $end
$var wire 1 ^ inst1|inst3|inst6|inst1~1_combout $end
$var wire 1 _ inst1|inst2|inst|7~0_combout $end
$var wire 1 ` inst1|inst2|inst|34~0_combout $end
$var wire 1 a inst1|inst2|inst|34~feeder_combout $end
$var wire 1 b inst1|inst2|inst|34~q $end
$var wire 1 c inst1|inst2|inst|32~0_combout $end
$var wire 1 d inst1|inst2|inst|32~q $end
$var wire 1 e inst1|inst2|inst|31~0_combout $end
$var wire 1 f inst1|inst2|inst|31~feeder_combout $end
$var wire 1 g inst1|inst2|inst|31~q $end
$var wire 1 h inst1|inst2|inst|29~combout $end
$var wire 1 i inst1|inst2|inst|33~0_combout $end
$var wire 1 j inst1|inst2|inst|33~q $end
$var wire 1 k inst1|inst2|inst|5~0_combout $end
$var wire 1 l inst1|inst2|inst|5~q $end
$var wire 1 m inst1|inst2|inst6|inst1~1_combout $end
$var wire 1 n inst1|inst2|inst|7~q $end
$var wire 1 o inst1|inst2|inst|3~0_combout $end
$var wire 1 p inst1|inst2|inst|3~q $end
$var wire 1 q inst1|inst2|inst|20~combout $end
$var wire 1 r inst1|inst2|inst|6~0_combout $end
$var wire 1 s inst1|inst2|inst|6~feeder_combout $end
$var wire 1 t inst1|inst2|inst|6~q $end
$var wire 1 u Set_H[0]~input_o $end
$var wire 1 v Set_H[1]~input_o $end
$var wire 1 w inst|inst13~2_combout $end
$var wire 1 x Set_H[3]~input_o $end
$var wire 1 y Set_H[2]~input_o $end
$var wire 1 z inst|inst13~3_combout $end
$var wire 1 { Set_S[1]~input_o $end
$var wire 1 | Set_S[0]~input_o $end
$var wire 1 } inst|inst13~0_combout $end
$var wire 1 ~ Set_S[3]~input_o $end
$var wire 1 !! Set_S[2]~input_o $end
$var wire 1 "! inst|inst13~1_combout $end
$var wire 1 #! inst|inst13~4_combout $end
$var wire 1 $! Set_H[6]~input_o $end
$var wire 1 %! Set_H[7]~input_o $end
$var wire 1 &! inst|inst13~13_combout $end
$var wire 1 '! Set_M[5]~input_o $end
$var wire 1 (! Set_M[4]~input_o $end
$var wire 1 )! inst|inst13~10_combout $end
$var wire 1 *! Set_M[7]~input_o $end
$var wire 1 +! Set_M[6]~input_o $end
$var wire 1 ,! inst|inst13~11_combout $end
$var wire 1 -! Set_H[5]~input_o $end
$var wire 1 .! Set_H[4]~input_o $end
$var wire 1 /! inst|inst13~12_combout $end
$var wire 1 0! inst|inst13~14_combout $end
$var wire 1 1! Set_S[6]~input_o $end
$var wire 1 2! Set_S[7]~input_o $end
$var wire 1 3! inst|inst13~8_combout $end
$var wire 1 4! Set_M[1]~input_o $end
$var wire 1 5! Set_M[0]~input_o $end
$var wire 1 6! inst|inst13~5_combout $end
$var wire 1 7! Set_S[4]~input_o $end
$var wire 1 8! Set_S[5]~input_o $end
$var wire 1 9! inst|inst13~7_combout $end
$var wire 1 :! Set_M[3]~input_o $end
$var wire 1 ;! Set_M[2]~input_o $end
$var wire 1 <! inst|inst13~6_combout $end
$var wire 1 =! inst|inst13~9_combout $end
$var wire 1 >! inst|inst13~15_combout $end
$upscope $end
$upscope $end
$enddefinitions $end
#0
$dumpvars
0!
b0 "
b0 #
b100000 $
1%
0&
x'
0(
1)
x*
1+
1,
1-
0.
1/
00
11
02
13
14
05
16
07
08
09
0:
1;
1<
0=
0>
0?
0@
1A
1B
1C
0D
1E
0F
xG
1H
1I
0J
1K
1L
1M
0N
1O
0P
0Q
0R
1S
0T
0U
0V
0W
1X
1Y
1Z
0[
1\
0]
x^
1_
1`
1a
0b
1c
0d
0e
0f
0g
1h
1i
0j
1k
0l
xm
0n
0o
0p
1q
1r
1s
0t
0u
0v
1w
0x
0y
1z
0{
0|
1}
0~
0!!
1"!
1#!
0$!
0%!
1&!
0'!
0(!
1)!
0*!
0+!
1,!
0-!
0.!
1/!
10!
01!
02!
13!
04!
05!
16!
07!
18!
09!
0:!
0;!
1<!
0=!
0>!
$end
#5000
1!
10
0'
1G
#10000
0!
00
1'
12
0}
03
01
0#!
#15000
1!
10
0'
#20000
0!
00
1'
02
1}
13
11
1#!
15
0}
04
0#!
#25000
1!
10
0'
#30000
0!
00
1'
12
03
01
#35000
1!
10
0'
#40000
0!
00
1'
02
13
11
05
1}
14
1#!
17
0"!
06
0#!
#45000
1!
10
0'
#50000
0!
00
1'
12
0}
03
01
#55000
1!
10
0'
#60000
0!
00
1'
02
1}
13
11
15
0}
18
04
19
#65000
1!
10
0'
#70000
0!
00
1'
12
03
01
#75000
1!
10
0'
#80000
0!
00
1'
02
13
11
05
1:
1}
08
14
09
07
16
#85000
1!
10
0'
#90000
0!
00
1'
12
0}
01
#95000
1!
10
0'
#100000
0!
00
1'
02
1}
11
0:
1"!
1#!
1=
0A
0;
0<
#105000
1!
10
0'
#110000
0!
00
1'
12
0}
03
01
0#!
#115000
1!
10
0'
#120000
0!
00
1'
02
1}
13
11
1#!
15
0}
04
0#!
#125000
1!
10
0'
#130000
0!
00
1'
12
03
01
#135000
1!
10
0'
#140000
0!
00
1'
02
13
11
05
1}
14
1#!
17
0"!
06
0#!
#145000
1!
10
0'
#150000
0!
00
1'
12
0}
03
01
#155000
1!
10
0'
#160000
0!
00
1'
02
1}
13
11
15
0}
18
04
19
#165000
1!
10
0'
#170000
0!
00
1'
12
03
01
#175000
1!
10
0'
#180000
0!
00
1'
02
13
11
05
1:
1}
08
14
09
07
16
#185000
1!
10
0'
#190000
0!
00
1'
12
0}
01
#195000
1!
10
0'
#200000
0!
00
1'
02
1}
11
0:
1"!
1#!
0=
1A
1;
1<
1D
19!
0B
1=!
0C
1>!
1.
1&
#205000
1!
10
0'
#210000
0!
00
1'
12
0}
03
01
0#!
0>!
0.
0&
#215000
1!
10
0'
#220000
0!
00
1'
02
1}
13
11
1#!
1>!
1.
1&
15
0}
04
0#!
0>!
0.
0&
#225000
1!
10
0'
#230000
0!
00
1'
12
03
01
#235000
1!
10
0'
#240000
0!
00
1'
02
13
11
05
1}
14
1#!
1>!
1.
1&
17
0"!
06
0#!
0>!
0.
0&
#245000
1!
10
0'
#250000
0!
00
1'
12
0}
03
01
#255000
1!
10
0'
#260000
0!
00
1'
02
1}
13
11
15
0}
18
04
19
#265000
1!
10
0'
#270000
0!
00
1'
12
03
01
#275000
1!
10
0'
#280000
0!
00
1'
02
13
11
05
1:
1}
08
14
09
07
16
#285000
1!
10
0'
#290000
0!
00
1'
12
0}
01
#295000
1!
10
0'
#300000
0!
00
1'
02
1}
11
0:
1"!
1#!
1>!
1.
1&
1=
09!
0A
0;
0=!
0<
0>!
0.
0&
#305000
1!
10
0'
#310000
0!
00
1'
12
0}
03
01
0#!
#315000
1!
10
0'
#320000
0!
00
1'
02
1}
13
11
1#!
15
0}
04
0#!
#325000
1!
10
0'
#330000
0!
00
1'
12
03
01
#335000
1!
10
0'
#340000
0!
00
1'
02
13
11
05
1}
14
1#!
17
0"!
06
0#!
#345000
1!
10
0'
#350000
0!
00
1'
12
0}
03
01
#355000
1!
10
0'
#360000
0!
00
1'
02
1}
13
11
15
0}
18
04
19
#365000
1!
10
0'
#370000
0!
00
1'
12
03
01
#375000
1!
10
0'
#380000
0!
00
1'
02
13
11
05
1:
1}
08
14
09
07
16
#385000
1!
10
0'
#390000
0!
00
1'
12
0}
01
#395000
1!
10
0'
#400000
0!
00
1'
02
1}
11
0:
1"!
1#!
0=
19!
1A
1;
1=!
1<
1>!
1.
1&
0D
09!
1B
0=!
1C
0>!
0.
0&
1F
03!
0E
#405000
1!
10
0'
#410000
0!
00
1'
12
0}
03
01
0#!
#415000
1!
10
0'
#420000
0!
00
1'
02
1}
13
11
1#!
15
0}
04
0#!
#425000
1!
10
0'
#430000
0!
00
1'
12
03
01
#435000
1!
10
0'
#440000
0!
00
1'
02
13
11
05
1}
14
1#!
17
0"!
06
0#!
#445000
1!
10
0'
#450000
0!
00
1'
12
0}
03
01
#455000
1!
10
0'
#460000
0!
00
1'
02
1}
13
11
15
0}
18
04
19
#465000
1!
10
0'
#470000
0!
00
1'
12
03
01
#475000
1!
10
0'
#480000
0!
00
1'
02
13
11
05
1:
1}
08
14
09
07
16
#485000
1!
10
0'
#490000
0!
00
1'
12
0}
01
#495000
1!
10
0'
#500000
0!
00
1'
02
1}
11
0:
1"!
1#!
1=
0A
0;
0<
#505000
1!
10
0'
#510000
0!
00
1'
12
0}
03
01
0#!
#515000
1!
10
0'
#520000
0!
00
1'
02
1}
13
11
1#!
15
0}
04
0#!
#525000
1!
10
0'
#530000
0!
00
1'
12
03
01
#535000
1!
10
0'
#540000
0!
00
1'
02
13
11
05
1}
14
1#!
17
0"!
06
0#!
#545000
1!
10
0'
#550000
0!
00
1'
12
0}
03
01
#555000
1!
10
0'
#560000
0!
00
1'
02
1}
13
11
15
0}
18
04
19
#565000
1!
10
0'
#570000
0!
00
1'
12
03
01
#575000
1!
10
0'
#580000
0!
00
1'
02
13
11
05
1:
1}
08
14
09
07
16
#585000
1!
10
0'
#590000
0!
00
1'
12
0}
01
#595000
1!
10
0'
#600000
0!
00
1'
02
1}
11
0:
1"!
1#!
0=
1A
1;
1<
1D
19!
0G
0B
1>
1^
0C
1?
0F
0D
13!
1E
0>
09!
1B
0?
1C
#605000
1!
10
0'
1G
1J
06!
0K
0H
0I
#610000
0!
00
1'
12
0}
03
01
0#!
#615000
1!
10
0'
#620000
0!
00
1'
02
1}
13
11
1#!
15
0}
04
0#!
#625000
1!
10
0'
#630000
0!
00
1'
12
03
01
#635000
1!
10
0'
#640000
0!
00
1'
02
13
11
05
1}
14
1#!
17
0"!
06
0#!
#645000
1!
10
0'
#650000
0!
00
1'
12
0}
03
01
#655000
1!
10
0'
#660000
0!
00
1'
02
1}
13
11
15
0}
18
04
19
#665000
1!
10
0'
#670000
0!
00
1'
12
03
01
#675000
1!
10
0'
#680000
0!
00
1'
02
13
11
05
1:
1}
08
14
09
07
16
#685000
1!
10
0'
#690000
0!
00
1'
12
0}
01
#695000
1!
10
0'
#700000
0!
00
1'
02
1}
11
0:
1"!
1#!
1=
0A
0;
0<
#705000
1!
10
0'
#710000
0!
00
1'
12
0}
03
01
0#!
#715000
1!
10
0'
#720000
0!
00
1'
02
1}
13
11
1#!
15
0}
04
0#!
#725000
1!
10
0'
#730000
0!
00
1'
12
03
01
#735000
1!
10
0'
#740000
0!
00
1'
02
13
11
05
1}
14
1#!
17
0"!
06
0#!
#745000
1!
10
0'
#750000
0!
00
1'
12
0}
03
01
#755000
1!
10
0'
#760000
0!
00
1'
02
1}
13
11
15
0}
18
04
19
#765000
1!
10
0'
#770000
0!
00
1'
12
03
01
#775000
1!
10
0'
#780000
0!
00
1'
02
13
11
05
1:
1}
08
14
09
07
16
#785000
1!
10
0'
#790000
0!
00
1'
12
0}
01
#795000
1!
10
0'
#800000
0!
00
1'
02
1}
11
0:
1"!
1#!
0=
1A
1;
1<
1D
19!
0B
0C
#805000
1!
10
0'
#810000
0!
00
1'
12
0}
03
01
0#!
#815000
1!
10
0'
#820000
0!
00
1'
02
1}
13
11
1#!
15
0}
04
0#!
#825000
1!
10
0'
#830000
0!
00
1'
12
03
01
#835000
1!
10
0'
#840000
0!
00
1'
02
13
11
05
1}
14
1#!
17
0"!
06
0#!
#845000
1!
10
0'
#850000
0!
00
1'
12
0}
03
01
#855000
1!
10
0'
#860000
0!
00
1'
02
1}
13
11
15
0}
18
04
19
#865000
1!
10
0'
#870000
0!
00
1'
12
03
01
#875000
1!
10
0'
#880000
0!
00
1'
02
13
11
05
1:
1}
08
14
09
07
16
#885000
1!
10
0'
#890000
0!
00
1'
12
0}
01
#895000
1!
10
0'
#900000
0!
00
1'
02
1}
11
0:
1"!
1#!
1=
09!
0A
0;
0<
#905000
1!
10
0'
#910000
0!
00
1'
12
0}
03
01
0#!
#915000
1!
10
0'
#920000
0!
00
1'
02
1}
13
11
1#!
15
0}
04
0#!
#925000
1!
10
0'
#930000
0!
00
1'
12
03
01
#935000
1!
10
0'
#940000
0!
00
1'
02
13
11
05
1}
14
1#!
17
0"!
06
0#!
#945000
1!
10
0'
#950000
0!
00
1'
12
0}
03
01
#955000
1!
10
0'
#960000
0!
00
1'
02
1}
13
11
15
0}
18
04
19
#965000
1!
10
0'
#970000
0!
00
1'
12
03
01
#975000
1!
10
0'
#980000
0!
00
1'
02
13
11
05
1:
1}
08
14
09
07
16
#985000
1!
10
0'
#990000
0!
00
1'
12
0}
01
#995000
1!
10
0'
#1000000
0!
00
1'
02
1}
11
0:
1"!
1#!
0=
19!
1A
1;
1<
0D
09!
1B
1C
1F
03!
0E
#1005000
1!
10
0'
#1010000
0!
00
1'
12
0}
03
01
0#!
#1015000
1!
10
0'
#1020000
0!
00
1'
02
1}
13
11
1#!
15
0}
04
0#!
#1025000
1!
10
0'
#1030000
0!
00
1'
12
03
01
#1035000
1!
10
0'
#1040000
0!
00
1'
02
13
11
05
1}
14
1#!
17
0"!
06
0#!
#1045000
1!
10
0'
#1050000
0!
00
1'
12
0}
03
01
#1055000
1!
10
0'
#1060000
0!
00
1'
02
1}
13
11
15
0}
18
04
19
#1065000
1!
10
0'
#1070000
0!
00
1'
12
03
01
#1075000
1!
10
0'
#1080000
0!
00
1'
02
13
11
05
1:
1}
08
14
09
07
16
#1085000
1!
10
0'
#1090000
0!
00
1'
12
0}
01
#1095000
1!
10
0'
#1100000
0!
00
1'
02
1}
11
0:
1"!
1#!
1=
0A
0;
0<
#1105000
1!
10
0'
#1110000
0!
00
1'
12
0}
03
01
0#!
#1115000
1!
10
0'
#1120000
0!
00
1'
02
1}
13
11
1#!
15
0}
04
0#!
#1125000
1!
10
0'
#1130000
0!
00
1'
12
03
01
#1135000
1!
10
0'
#1140000
0!
00
1'
02
13
11
05
1}
14
1#!
17
0"!
06
0#!
#1145000
1!
10
0'
#1150000
0!
00
1'
12
0}
03
01
#1155000
1!
10
0'
#1160000
0!
00
1'
02
1}
13
11
15
0}
18
04
19
#1165000
1!
10
0'
#1170000
0!
00
1'
12
03
01
#1175000
1!
10
0'
#1180000
0!
00
1'
02
13
11
05
1:
1}
08
14
09
07
16
#1185000
1!
10
0'
#1190000
0!
00
1'
12
0}
01
#1195000
1!
10
0'
#1200000
0!
00
1'
02
1}
11
0:
1"!
1#!
0=
1A
1;
1<
1D
19!
0G
0B
1>
0C
1?
0F
0D
13!
1E
0>
09!
1B
0?
1C
#1205000
1!
10
0'
1G
0J
16!
1K
1H
1I
1N
06!
0L
0M
#1210000
0!
00
1'
12
0}
03
01
0#!
#1215000
1!
10
0'
#1220000
0!
00
1'
02
1}
13
11
1#!
15
0}
04
0#!
#1225000
1!
10
0'
#1230000
0!
00
1'
12
03
01
#1235000
1!
10
0'
#1240000
0!
00
1'
02
13
11
05
1}
14
1#!
17
0"!
06
0#!
#1245000
1!
10
0'
#1250000
0!
00
1'
12
0}
03
01
#1255000
1!
10
0'
#1260000
0!
00
1'
02
1}
13
11
15
0}
18
04
19
#1265000
1!
10
0'
#1270000
0!
00
1'
12
03
01
#1275000
1!
10
0'
#1280000
0!
00
1'
02
13
11
05
1:
1}
08
14
09
07
16
#1285000
1!
10
0'
#1290000
0!
00
1'
12
0}
01
#1295000
1!
10
0'
#1300000
0!
00
1'
02
1}
11
0:
1"!
1#!
1=
0A
0;
0<
#1305000
1!
10
0'
#1310000
0!
00
1'
12
0}
03
01
0#!
#1315000
1!
10
0'
#1320000
0!
00
1'
02
1}
13
11
1#!
15
0}
04
0#!
#1325000
1!
10
0'
#1330000
0!
00
1'
12
03
01
#1335000
1!
10
0'
#1340000
0!
00
1'
02
13
11
05
1}
14
1#!
17
0"!
06
0#!
#1345000
1!
10
0'
#1350000
0!
00
1'
12
0}
03
01
#1355000
1!
10
0'
#1360000
0!
00
1'
02
1}
13
11
15
0}
18
04
19
#1365000
1!
10
0'
#1370000
0!
00
1'
12
03
01
#1375000
1!
10
0'
#1380000
0!
00
1'
02
13
11
05
1:
1}
08
14
09
07
16
#1385000
1!
10
0'
#1390000
0!
00
1'
12
0}
01
#1395000
1!
10
0'
#1400000
0!
00
1'
02
1}
11
0:
1"!
1#!
0=
1A
1;
1<
1D
19!
0B
0C
#1405000
1!
10
0'
#1410000
0!
00
1'
12
0}
03
01
0#!
#1415000
1!
10
0'
#1420000
0!
00
1'
02
1}
13
11
1#!
15
0}
04
0#!
#1425000
1!
10
0'
#1430000
0!
00
1'
12
03
01
#1435000
1!
10
0'
#1440000
0!
00
1'
02
13
11
05
1}
14
1#!
17
0"!
06
0#!
#1445000
1!
10
0'
#1450000
0!
00
1'
12
0}
03
01
#1455000
1!
10
0'
#1460000
0!
00
1'
02
1}
13
11
15
0}
18
04
19
#1465000
1!
10
0'
#1470000
0!
00
1'
12
03
01
#1475000
1!
10
0'
#1480000
0!
00
1'
02
13
11
05
1:
1}
08
14
09
07
16
#1485000
1!
10
0'
#1490000
0!
00
1'
12
0}
01
#1495000
1!
10
0'
#1500000
0!
00
1'
02
1}
11
0:
1"!
1#!
1=
09!
0A
0;
0<
#1505000
1!
10
0'
#1510000
0!
00
1'
12
0}
03
01
0#!
#1515000
1!
10
0'
#1520000
0!
00
1'
02
1}
13
11
1#!
15
0}
04
0#!
#1525000
1!
10
0'
#1530000
0!
00
1'
12
03
01
#1535000
1!
10
0'
#1540000
0!
00
1'
02
13
11
05
1}
14
1#!
17
0"!
06
0#!
#1545000
1!
10
0'
#1550000
0!
00
1'
12
0}
03
01
#1555000
1!
10
0'
#1560000
0!
00
1'
02
1}
13
11
15
0}
18
04
19
#1565000
1!
10
0'
#1570000
0!
00
1'
12
03
01
#1575000
1!
10
0'
#1580000
0!
00
1'
02
13
11
05
1:
1}
08
14
09
07
16
#1585000
1!
10
0'
#1590000
0!
00
1'
12
0}
01
#1595000
1!
10
0'
#1600000
0!
00
1'
02
1}
11
0:
1"!
1#!
0=
19!
1A
1;
1<
0D
09!
1B
1C
1F
03!
0E
#1605000
1!
10
0'
#1610000
0!
00
1'
12
0}
03
01
0#!
#1615000
1!
10
0'
#1620000
0!
00
1'
02
1}
13
11
1#!
15
0}
04
0#!
#1625000
1!
10
0'
#1630000
0!
00
1'
12
03
01
#1635000
1!
10
0'
#1640000
0!
00
1'
02
13
11
05
1}
14
1#!
17
0"!
06
0#!
#1645000
1!
10
0'
#1650000
0!
00
1'
12
0}
03
01
#1655000
1!
10
0'
#1660000
0!
00
1'
02
1}
13
11
15
0}
18
04
19
#1665000
1!
10
0'
#1670000
0!
00
1'
12
03
01
#1675000
1!
10
0'
#1680000
0!
00
1'
02
13
11
05
1:
1}
08
14
09
07
16
#1685000
1!
10
0'
#1690000
0!
00
1'
12
0}
01
#1695000
1!
10
0'
#1700000
0!
00
1'
02
1}
11
0:
1"!
1#!
1=
0A
0;
0<
#1705000
1!
10
0'
#1710000
0!
00
1'
12
0}
03
01
0#!
#1715000
1!
10
0'
#1720000
0!
00
1'
02
1}
13
11
1#!
15
0}
04
0#!
#1725000
1!
10
0'
#1730000
0!
00
1'
12
03
01
#1735000
1!
10
0'
#1740000
0!
00
1'
02
13
11
05
1}
14
1#!
17
0"!
06
0#!
#1745000
1!
10
0'
#1750000
0!
00
1'
12
0}
03
01
#1755000
1!
10
0'
#1760000
0!
00
1'
02
1}
13
11
15
0}
18
04
19
#1765000
1!
10
0'
#1770000
0!
00
1'
12
03
01
#1775000
1!
10
0'
#1780000
0!
00
1'
02
13
11
05
1:
1}
08
14
09
07
16
#1785000
1!
10
0'
#1790000
0!
00
1'
12
0}
01
#1795000
1!
10
0'
#1800000
0!
00
1'
02
1}
11
0:
1"!
1#!
0=
1A
1;
1<
1D
19!
0G
0B
1>
0C
1?
0F
0D
13!
1E
0>
09!
1B
0?
1C
#1805000
1!
10
0'
1G
1J
0K
0H
0I
#1810000
0!
00
1'
12
0}
03
01
0#!
#1815000
1!
10
0'
#1820000
0!
00
1'
02
1}
13
11
1#!
15
0}
04
0#!
#1825000
1!
10
0'
#1830000
0!
00
1'
12
03
01
#1835000
1!
10
0'
#1840000
0!
00
1'
02
13
11
05
1}
14
1#!
17
0"!
06
0#!
#1845000
1!
10
0'
#1850000
0!
00
1'
12
0}
03
01
#1855000
1!
10
0'
#1860000
0!
00
1'
02
1}
13
11
15
0}
18
04
19
#1865000
1!
10
0'
#1870000
0!
00
1'
12
03
01
#1875000
1!
10
0'
#1880000
0!
00
1'
02
13
11
05
1:
1}
08
14
09
07
16
#1885000
1!
10
0'
#1890000
0!
00
1'
12
0}
01
#1895000
1!
10
0'
#1900000
0!
00
1'
02
1}
11
0:
1"!
1#!
1=
0A
0;
0<
#1905000
1!
10
0'
#1910000
0!
00
1'
12
0}
03
01
0#!
#1915000
1!
10
0'
#1920000
0!
00
1'
02
1}
13
11
1#!
15
0}
04
0#!
#1925000
1!
10
0'
#1930000
0!
00
1'
12
03
01
#1935000
1!
10
0'
#1940000
0!
00
1'
02
13
11
05
1}
14
1#!
17
0"!
06
0#!
#1945000
1!
10
0'
#1950000
0!
00
1'
12
0}
03
01
#1955000
1!
10
0'
#1960000
0!
00
1'
02
1}
13
11
15
0}
18
04
19
#1965000
1!
10
0'
#1970000
0!
00
1'
12
03
01
#1975000
1!
10
0'
#1980000
0!
00
1'
02
13
11
05
1:
1}
08
14
09
07
16
#1985000
1!
10
0'
#1990000
0!
00
1'
12
0}
01
#1995000
1!
10
0'
#2000000
0!
00
1'
02
1}
11
0:
1"!
1#!
0=
1A
1;
1<
1D
19!
0B
0C
#2005000
1!
10
0'
#2010000
0!
00
1'
12
0}
03
01
0#!
#2015000
1!
10
0'
#2020000
0!
00
1'
02
1}
13
11
1#!
15
0}
04
0#!
#2025000
1!
10
0'
#2030000
0!
00
1'
12
03
01
#2035000
1!
10
0'
#2040000
0!
00
1'
02
13
11
05
1}
14
1#!
17
0"!
06
0#!
#2045000
1!
10
0'
#2050000
0!
00
1'
12
0}
03
01
#2055000
1!
10
0'
#2060000
0!
00
1'
02
1}
13
11
15
0}
18
04
19
#2065000
1!
10
0'
#2070000
0!
00
1'
12
03
01
#2075000
1!
10
0'
#2080000
0!
00
1'
02
13
11
05
1:
1}
08
14
09
07
16
#2085000
1!
10
0'
#2090000
0!
00
1'
12
0}
01
#2095000
1!
10
0'
#2100000
0!
00
1'
02
1}
11
0:
1"!
1#!
1=
09!
0A
0;
0<
#2105000
1!
10
0'
#2110000
0!
00
1'
12
0}
03
01
0#!
#2115000
1!
10
0'
#2120000
0!
00
1'
02
1}
13
11
1#!
15
0}
04
0#!
#2125000
1!
10
0'
#2130000
0!
00
1'
12
03
01
#2135000
1!
10
0'
#2140000
0!
00
1'
02
13
11
05
1}
14
1#!
17
0"!
06
0#!
#2145000
1!
10
0'
#2150000
0!
00
1'
12
0}
03
01
#2155000
1!
10
0'
#2160000
0!
00
1'
02
1}
13
11
15
0}
18
04
19
#2165000
1!
10
0'
#2170000
0!
00
1'
12
03
01
#2175000
1!
10
0'
#2180000
0!
00
1'
02
13
11
05
1:
1}
08
14
09
07
16
#2185000
1!
10
0'
#2190000
0!
00
1'
12
0}
01
#2195000
1!
10
0'
#2200000
0!
00
1'
02
1}
11
0:
1"!
1#!
0=
19!
1A
1;
1<
0D
09!
1B
1C
1F
03!
0E
#2205000
1!
10
0'
#2210000
0!
00
1'
12
0}
03
01
0#!
#2215000
1!
10
0'
#2220000
0!
00
1'
02
1}
13
11
1#!
15
0}
04
0#!
#2225000
1!
10
0'
#2230000
0!
00
1'
12
03
01
#2235000
1!
10
0'
#2240000
0!
00
1'
02
13
11
05
1}
14
1#!
17
0"!
06
0#!
#2245000
1!
10
0'
#2250000
0!
00
1'
12
0}
03
01
#2255000
1!
10
0'
#2260000
0!
00
1'
02
1}
13
11
15
0}
18
04
19
#2265000
1!
10
0'
#2270000
0!
00
1'
12
03
01
#2275000
1!
10
0'
#2280000
0!
00
1'
02
13
11
05
1:
1}
08
14
09
07
16
#2285000
1!
10
0'
#2290000
0!
00
1'
12
0}
01
#2295000
1!
10
0'
#2300000
0!
00
1'
02
1}
11
0:
1"!
1#!
1=
0A
0;
0<
#2305000
1!
10
0'
#2310000
0!
00
1'
12
0}
03
01
0#!
#2315000
1!
10
0'
#2320000
0!
00
1'
02
1}
13
11
1#!
15
0}
04
0#!
#2325000
1!
10
0'
#2330000
0!
00
1'
12
03
01
#2335000
1!
10
0'
#2340000
0!
00
1'
02
13
11
05
1}
14
1#!
17
0"!
06
0#!
#2345000
1!
10
0'
#2350000
0!
00
1'
12
0}
03
01
#2355000
1!
10
0'
#2360000
0!
00
1'
02
1}
13
11
15
0}
18
04
19
#2365000
1!
10
0'
#2370000
0!
00
1'
12
03
01
#2375000
1!
10
0'
#2380000
0!
00
1'
02
13
11
05
1:
1}
08
14
09
07
16
#2385000
1!
10
0'
#2390000
0!
00
1'
12
0}
01
#2395000
1!
10
0'
#2400000
0!
00
1'
02
1}
11
0:
1"!
1#!
0=
1A
1;
1<
1D
19!
0G
0B
1>
0C
1?
0F
0D
13!
1E
0>
09!
1B
0?
1C
#2405000
1!
10
0'
1G
0J
1K
1H
1I
0N
16!
1L
1M
1P
0<!
0O
#2410000
0!
00
1'
12
0}
03
01
0#!
#2415000
1!
10
0'
#2420000
0!
00
1'
02
1}
13
11
1#!
15
0}
04
0#!
#2425000
1!
10
0'
#2430000
0!
00
1'
12
03
01
#2435000
1!
10
0'
#2440000
0!
00
1'
02
13
11
05
1}
14
1#!
17
0"!
06
0#!
#2445000
1!
10
0'
#2450000
0!
00
1'
12
0}
03
01
#2455000
1!
10
0'
#2460000
0!
00
1'
02
1}
13
11
15
0}
18
04
19
#2465000
1!
10
0'
#2470000
0!
00
1'
12
03
01
#2475000
1!
10
0'
#2480000
0!
00
1'
02
13
11
05
1:
1}
08
14
09
07
16
#2485000
1!
10
0'
#2490000
0!
00
1'
12
0}
01
#2495000
1!
10
0'
#2500000
0!
00
1'
02
1}
11
0:
1"!
1#!
1=
0A
0;
0<
#2505000
1!
10
0'
#2510000
0!
00
1'
12
0}
03
01
0#!
#2515000
1!
10
0'
#2520000
0!
00
1'
02
1}
13
11
1#!
15
0}
04
0#!
#2525000
1!
10
0'
#2530000
0!
00
1'
12
03
01
#2535000
1!
10
0'
#2540000
0!
00
1'
02
13
11
05
1}
14
1#!
17
0"!
06
0#!
#2545000
1!
10
0'
#2550000
0!
00
1'
12
0}
03
01
#2555000
1!
10
0'
#2560000
0!
00
1'
02
1}
13
11
15
0}
18
04
19
#2565000
1!
10
0'
