大一（下）/数字电路与逻辑设计/实验报告/实验源文件/experiment_6/simulation/qsim/experiment_6.msim.vcd
$comment
	File created using the following command:
		vcd file experiment_6.msim.vcd -direction
$end
$date
	Fri May 08 17:13:19 2020
$end
$version
	ModelSim Version 10.1d
$end
$timescale
	1ps
$end
$scope module block1_vlg_vec_tst $end
$var reg 1 ! A $end
$var reg 1 " B $end
$var reg 1 # C $end
$var reg 1 $ D $end
$var reg 1 % GN $end
$var wire 1 & F $end
$var wire 1 ' sampler $end
$scope module i1 $end
$var wire 1 ( gnd $end
$var wire 1 ) vcc $end
$var wire 1 * unknown $end
$var tri1 1 + devclrn $end
$var tri1 1 , devpor $end
$var tri1 1 - devoe $end
$var wire 1 . F~output_o $end
$var wire 1 / GN~input_o $end
$var wire 1 0 B~input_o $end
$var wire 1 1 D~input_o $end
$var wire 1 2 C~input_o $end
$var wire 1 3 A~input_o $end
$var wire 1 4 inst|sub|85~0_combout $end
$var wire 1 5 inst|sub|85~1_combout $end
$upscope $end
$upscope $end
$enddefinitions $end
#0
$dumpvars
0!
0"
0#
0$
0%
0&
x'
0(
1)
x*
1+
1,
1-
0.
0/
00
01
02
03
04
05
$end
#10000
1$
11
0'
#20000
1#
0$
12
01
1'
#30000
1$
11
0'
#40000
1"
0#
0$
10
02
01
1'
#50000
1$
11
0'
#60000
1#
0$
12
01
1'
#70000
1$
11
0'
14
15
1.
1&
#80000
1!
0"
0#
0$
13
00
02
01
1'
04
05
0.
0&
#90000
1$
11
0'
#100000
1#
0$
12
01
1'
#110000
1$
11
0'
14
15
1.
1&
#120000
1"
0#
0$
10
02
01
1'
04
05
0.
0&
#130000
1$
11
0'
14
15
1.
1&
#140000
1#
0$
12
01
1'
#150000
1$
11
0'
#160000
1%
0!
0"
0#
0$
1/
03
00
02
01
1'
04
05
0.
0&
#170000
1$
11
0'
#180000
1#
0$
12
01
1'
#190000
1$
11
0'
#200000
1"
0#
0$
10
02
01
1'
#210000
1$
11
0'
#220000
1#
0$
12
01
1'
#230000
1$
11
0'
14
#240000
1!
0"
0#
0$
13
00
02
01
1'
04
#250000
1$
11
0'
#260000
1#
0$
12
01
1'
#270000
1$
11
0'
14
#280000
1"
0#
0$
10
02
01
1'
04
#290000
1$
11
0'
14
#300000
1#
0$
12
01
1'
#310000
1$
11
0'
#320000
0%
0!
0"
0#
0$
0/
03
00
02
01
1'
04
15
1.
1&
05
0.
0&
#330000
1$
11
0'
#340000
1#
0$
12
01
1'
#350000
1$
11
0'
#360000
1"
0#
0$
10
02
01
1'
#370000
1$
11
0'
#380000
1#
0$
12
01
1'
#390000
1$
11
0'
14
15
1.
1&
#400000
1!
0"
0#
0$
13
00
02
01
1'
04
05
0.
0&
#410000
1$
11
0'
#420000
1#
0$
12
01
1'
#430000
1$
11
0'
14
15
1.
1&
#440000
1"
0#
0$
10
02
01
1'
04
05
0.
0&
#450000
1$
11
0'
14
15
1.
1&
#460000
1#
0$
12
01
1'
#470000
1$
11
0'
#480000
1%
0!
0"
0#
0$
1/
03
00
02
01
1'
04
05
0.
0&
#490000
1$
11
0'
#500000
1#
0$
12
01
1'
#510000
1$
11
0'
#520000
1"
0#
0$
10
02
01
1'
#530000
1$
11
0'
#540000
1#
0$
12
01
1'
#550000
1$
11
0'
14
#560000
1!
0"
0#
0$
13
00
02
01
1'
04
#570000
1$
11
0'
#580000
1#
0$
12
01
1'
#590000
1$
11
0'
14
#600000
1"
0#
0$
10
02
01
1'
04
#610000
1$
11
0'
14
#620000
1#
0$
12
01
1'
#630000
1$
11
0'
#640000
0%
0!
0"
0#
0$
0/
03
00
02
01
1'
04
15
1.
1&
05
0.
0&
#650000
1$
11
0'
#660000
1#
0$
12
01
1'
#670000
1$
11
0'
#680000
1"
0#
0$
10
02
01
1'
#690000
1$
11
0'
#700000
1#
0$
12
01
1'
#710000
1$
11
0'
14
15
1.
1&
#720000
1!
0"
0#
0$
13
00
02
01
1'
04
05
0.
0&
#730000
1$
11
0'
#740000
1#
0$
12
01
1'
#750000
1$
11
0'
14
15
1.
1&
#760000
1"
0#
0$
10
02
01
1'
04
05
0.
0&
#770000
1$
11
0'
14
15
1.
1&
#780000
1#
0$
12
01
1'
#790000
1$
11
0'
#800000
1%
0!
0"
0#
0$
1/
03
00
02
01
1'
04
05
0.
0&
#810000
1$
11
0'
#820000
1#
0$
12
01
1'
#830000
1$
11
0'
#840000
1"
0#
0$
10
02
01
1'
#850000
1$
11
0'
#860000
1#
0$
12
01
1'
#870000
1$
11
0'
14
#880000
1!
0"
0#
0$
13
00
02
01
1'
04
#890000
1$
11
0'
#900000
1#
0$
12
01
1'
#910000
1$
11
0'
14
#920000
1"
0#
0$
10
02
01
1'
04
#930000
1$
11
0'
14
#940000
1#
0$
12
01
1'
#950000
1$
11
0'
#960000
0%
0!
0"
0#
0$
0/
03
00
02
01
1'
04
15
1.
1&
05
0.
0&
#970000
1$
11
0'
#980000
1#
0$
12
01
1'
#990000
1$
11
0'
