大一（下）/数字电路与逻辑设计/实验报告/实验源文件/experiment_13/simulation/qsim/experiment_13.msim.vcd
$comment
	File created using the following command:
		vcd file experiment_13.msim.vcd -direction
$end
$date
	Wed Jun 03 20:19:50 2020
$end
$version
	ModelSim Version 10.1d
$end
$timescale
	1ps
$end
$scope module lab_1_vlg_vec_tst $end
$var reg 1 ! A0 $end
$var reg 1 " A1 $end
$var reg 1 # A2 $end
$var reg 1 $ A3 $end
$var wire 1 % H [6] $end
$var wire 1 & H [5] $end
$var wire 1 ' H [4] $end
$var wire 1 ( H [3] $end
$var wire 1 ) H [2] $end
$var wire 1 * H [1] $end
$var wire 1 + H [0] $end
$var wire 1 , sampler $end
$scope module i1 $end
$var wire 1 - gnd $end
$var wire 1 . vcc $end
$var wire 1 / unknown $end
$var tri1 1 0 devclrn $end
$var tri1 1 1 devpor $end
$var tri1 1 2 devoe $end
$var wire 1 3 H[6]~output_o $end
$var wire 1 4 H[5]~output_o $end
$var wire 1 5 H[4]~output_o $end
$var wire 1 6 H[3]~output_o $end
$var wire 1 7 H[2]~output_o $end
$var wire 1 8 H[1]~output_o $end
$var wire 1 9 H[0]~output_o $end
$var wire 1 : A0~input_o $end
$var wire 1 ; A3~input_o $end
$var wire 1 < A1~input_o $end
$var wire 1 = A2~input_o $end
$var wire 1 > inst36~0_combout $end
$var wire 1 ? inst32~0_combout $end
$var wire 1 @ inst27~0_combout $end
$var wire 1 A inst22~0_combout $end
$var wire 1 B inst17~0_combout $end
$var wire 1 C inst13~0_combout $end
$var wire 1 D inst8~0_combout $end
$upscope $end
$upscope $end
$enddefinitions $end
#0
$dumpvars
0!
0"
0#
0$
0+
0*
0)
0(
0'
0&
1%
x,
0-
1.
x/
10
11
12
13
04
05
06
07
08
09
0:
0;
0<
0=
1>
0?
0@
0A
0B
0C
0D
$end
#5000
1!
1:
0,
1D
1A
1@
1?
19
16
15
14
1+
1(
1'
1&
#10000
1"
0!
1<
0:
1,
0D
1B
0A
0@
0>
09
17
06
05
03
0+
1)
0(
0'
0%
#15000
1!
1:
0,
0B
1@
07
15
0)
1'
#20000
1#
0"
0!
1=
0<
0:
1,
1D
1A
0?
19
16
04
1+
1(
0&
#25000
1!
1:
0,
0D
1C
0A
09
18
06
0+
1*
0(
#30000
1"
0!
1<
0:
1,
0@
05
0'
#35000
1!
1:
0,
0C
1A
1@
1?
1>
08
16
15
14
13
0*
1(
1'
1&
1%
#40000
1$
0#
0"
0!
1;
0=
0<
0:
1,
0A
0@
0?
0>
06
05
04
03
0(
0'
0&
0%
#45000
1!
1:
0,
1@
15
1'
#50000
1"
0!
1<
0:
1,
1A
0@
16
05
1(
0'
#55000
1!
1:
0,
1D
1C
0A
19
18
06
1+
1*
0(
#60000
1#
0"
0!
1=
0<
0:
1,
0D
1B
1>
09
17
13
0+
1)
1%
#65000
1!
1:
0,
1D
0C
1?
0>
19
08
14
03
1+
0*
1&
0%
#70000
1"
0!
1<
0:
1,
0D
1C
0?
09
18
04
0+
1*
0&
#75000
1!
1:
0,
0B
1A
07
16
0)
1(
#80000
0$
0#
0"
0!
0;
0=
0<
0:
1,
0C
0A
1>
08
06
13
0*
0(
1%
#85000
1!
1:
0,
1D
1A
1@
1?
19
16
15
14
1+
1(
1'
1&
#90000
1"
0!
1<
0:
1,
0D
1B
0A
0@
0>
09
17
06
05
03
0+
1)
0(
0'
0%
#95000
1!
1:
0,
0B
1@
07
15
0)
1'
#100000
1#
0"
0!
1=
0<
0:
1,
1D
1A
0?
19
16
04
1+
1(
0&
#105000
1!
1:
0,
0D
1C
0A
09
18
06
0+
1*
0(
#110000
1"
0!
1<
0:
1,
0@
05
0'
#115000
1!
1:
0,
0C
1A
1@
1?
1>
08
16
15
14
13
0*
1(
1'
1&
1%
#120000
1$
0#
0"
0!
1;
0=
0<
0:
1,
0A
0@
0?
0>
06
05
04
03
0(
0'
0&
0%
#125000
1!
1:
0,
1@
15
1'
#130000
1"
0!
1<
0:
1,
1A
0@
16
05
1(
0'
#135000
1!
1:
0,
1D
1C
0A
19
18
06
1+
1*
0(
#140000
1#
0"
0!
1=
0<
0:
1,
0D
1B
1>
09
17
13
0+
1)
1%
#145000
1!
1:
0,
1D
0C
1?
0>
19
08
14
03
1+
0*
1&
0%
#150000
1"
0!
1<
0:
1,
0D
1C
0?
09
18
04
0+
1*
0&
#155000
1!
1:
0,
0B
1A
07
16
0)
1(
#160000
0$
0#
0"
0!
0;
0=
0<
0:
1,
0C
0A
1>
08
06
13
0*
0(
1%
#165000
1!
1:
0,
1D
1A
1@
1?
19
16
15
14
1+
1(
1'
1&
#170000
1"
0!
1<
0:
1,
0D
1B
0A
0@
0>
09
17
06
05
03
0+
1)
0(
0'
0%
#175000
1!
1:
0,
0B
1@
07
15
0)
1'
#180000
1#
0"
0!
1=
0<
0:
1,
1D
1A
0?
19
16
04
1+
1(
0&
#185000
1!
1:
0,
0D
1C
0A
09
18
06
0+
1*
0(
#190000
1"
0!
1<
0:
1,
0@
05
0'
#195000
1!
1:
0,
0C
1A
1@
1?
1>
08
16
15
14
13
0*
1(
1'
1&
1%
#200000
1$
0#
0"
0!
1;
0=
0<
0:
1,
0A
0@
0?
0>
06
05
04
03
0(
0'
0&
0%
#205000
1!
1:
0,
1@
15
1'
#210000
1"
0!
1<
0:
1,
1A
0@
16
05
1(
0'
#215000
1!
1:
0,
1D
1C
0A
19
18
06
1+
1*
0(
#220000
1#
0"
0!
1=
0<
0:
1,
0D
1B
1>
09
17
13
0+
1)
1%
#225000
1!
1:
0,
1D
0C
1?
0>
19
08
14
03
1+
0*
1&
0%
#230000
1"
0!
1<
0:
1,
0D
1C
0?
09
18
04
0+
1*
0&
#235000
1!
1:
0,
0B
1A
07
16
0)
1(
#240000
0$
0#
0"
0!
0;
0=
0<
0:
1,
0C
0A
1>
08
06
13
0*
0(
1%
#245000
1!
1:
0,
1D
1A
1@
1?
19
16
15
14
1+
1(
1'
1&
#250000
1"
0!
1<
0:
1,
0D
1B
0A
0@
0>
09
17
06
05
03
0+
1)
0(
0'
0%
#255000
1!
1:
0,
0B
1@
07
15
0)
1'
#260000
1#
0"
0!
1=
0<
0:
1,
1D
1A
0?
19
16
04
1+
1(
0&
#265000
1!
1:
0,
0D
1C
0A
09
18
06
0+
1*
0(
#270000
1"
0!
1<
0:
1,
0@
05
0'
#275000
1!
1:
0,
0C
1A
1@
1?
1>
08
16
15
14
13
0*
1(
1'
1&
1%
#280000
1$
0#
0"
0!
1;
0=
0<
0:
1,
0A
0@
0?
0>
06
05
04
03
0(
0'
0&
0%
#285000
1!
1:
0,
1@
15
1'
#290000
1"
0!
1<
0:
1,
1A
0@
16
05
1(
0'
#295000
1!
1:
0,
1D
1C
0A
19
18
06
1+
1*
0(
#300000
1#
0"
0!
1=
0<
0:
1,
0D
1B
1>
09
17
13
0+
1)
1%
#305000
1!
1:
0,
1D
0C
1?
0>
19
08
14
03
1+
0*
1&
0%
#310000
1"
0!
1<
0:
1,
0D
1C
0?
09
18
04
0+
1*
0&
#315000
1!
1:
0,
0B
1A
07
16
0)
1(
#320000
0$
0#
0"
0!
0;
0=
0<
0:
1,
0C
0A
1>
08
06
13
0*
0(
1%
#325000
1!
1:
0,
1D
1A
1@
1?
19
16
15
14
1+
1(
1'
1&
#330000
1"
0!
1<
0:
1,
0D
1B
0A
0@
0>
09
17
06
05
03
0+
1)
0(
0'
0%
#335000
1!
1:
0,
0B
1@
07
15
0)
1'
#340000
1#
0"
0!
1=
0<
0:
1,
1D
1A
0?
19
16
04
1+
1(
0&
#345000
1!
1:
0,
0D
1C
0A
09
18
06
0+
1*
0(
#350000
1"
0!
1<
0:
1,
0@
05
0'
#355000
1!
1:
0,
0C
1A
1@
1?
1>
08
16
15
14
13
0*
1(
1'
1&
1%
#360000
1$
0#
0"
0!
1;
0=
0<
0:
1,
0A
0@
0?
0>
06
05
04
03
0(
0'
0&
0%
#365000
1!
1:
0,
1@
15
1'
#370000
1"
0!
1<
0:
1,
1A
0@
16
05
1(
0'
#375000
1!
1:
0,
1D
1C
0A
19
18
06
1+
1*
0(
#380000
1#
0"
0!
1=
0<
0:
1,
0D
1B
1>
09
17
13
0+
1)
1%
#385000
1!
1:
0,
1D
0C
1?
0>
19
08
14
03
1+
0*
1&
0%
#390000
1"
0!
1<
0:
1,
0D
1C
0?
09
18
04
0+
1*
0&
#395000
1!
1:
0,
0B
1A
07
16
0)
1(
#400000
0$
0#
0"
0!
0;
0=
0<
0:
1,
0C
0A
1>
08
06
13
0*
0(
1%
#405000
1!
1:
0,
1D
1A
1@
1?
19
16
15
14
1+
1(
1'
1&
#410000
1"
0!
1<
0:
1,
0D
1B
0A
0@
0>
09
17
06
05
03
0+
1)
0(
0'
0%
#415000
1!
1:
0,
0B
1@
07
15
0)
1'
#420000
1#
0"
0!
1=
0<
0:
1,
1D
1A
0?
19
16
04
1+
1(
0&
#425000
1!
1:
0,
0D
1C
0A
09
18
06
0+
1*
0(
#430000
1"
0!
1<
0:
1,
0@
05
0'
#435000
1!
1:
0,
0C
1A
1@
1?
1>
08
16
15
14
13
0*
1(
1'
1&
1%
#440000
1$
0#
0"
0!
1;
0=
0<
0:
1,
0A
0@
0?
0>
06
05
04
03
0(
0'
0&
0%
#445000
1!
1:
0,
1@
15
1'
#450000
1"
0!
1<
0:
1,
1A
0@
16
05
1(
0'
#455000
1!
1:
0,
1D
1C
0A
19
18
06
1+
1*
0(
#460000
1#
0"
0!
1=
0<
0:
1,
0D
1B
1>
09
17
13
0+
1)
1%
#465000
1!
1:
0,
1D
0C
1?
0>
19
08
14
03
1+
0*
1&
0%
#470000
1"
0!
1<
0:
1,
0D
1C
0?
09
18
04
0+
1*
0&
#475000
1!
1:
0,
0B
1A
07
16
0)
1(
#480000
0$
0#
0"
0!
0;
0=
0<
0:
1,
0C
0A
1>
08
06
13
0*
0(
1%
#485000
1!
1:
0,
1D
1A
1@
1?
19
16
15
14
1+
1(
1'
1&
#490000
1"
0!
1<
0:
1,
0D
1B
0A
0@
0>
09
17
06
05
03
0+
1)
0(
0'
0%
#495000
1!
1:
0,
0B
1@
07
15
0)
1'
#500000
1#
0"
0!
1=
0<
0:
1,
1D
1A
0?
19
16
04
1+
1(
0&
#505000
1!
1:
0,
0D
1C
0A
09
18
06
0+
1*
0(
#510000
1"
0!
1<
0:
1,
0@
05
0'
#515000
1!
1:
0,
0C
1A
1@
1?
1>
08
16
15
14
13
0*
1(
1'
1&
1%
#520000
1$
0#
0"
0!
1;
0=
0<
0:
1,
0A
0@
0?
0>
06
05
04
03
0(
0'
0&
0%
#525000
1!
1:
0,
1@
15
1'
#530000
1"
0!
1<
0:
1,
1A
0@
16
05
1(
0'
#535000
1!
1:
0,
1D
1C
0A
19
18
06
1+
1*
0(
#540000
1#
0"
0!
1=
0<
0:
1,
0D
1B
1>
09
17
13
0+
1)
1%
#545000
1!
1:
0,
1D
0C
1?
0>
19
08
14
03
1+
0*
1&
0%
#550000
1"
0!
1<
0:
1,
0D
1C
0?
09
18
04
0+
1*
0&
#555000
1!
1:
0,
0B
1A
07
16
0)
1(
#560000
0$
0#
0"
0!
0;
0=
0<
0:
1,
0C
0A
1>
08
06
13
0*
0(
1%
#565000
1!
1:
0,
1D
1A
1@
1?
19
16
15
14
1+
1(
1'
1&
#570000
1"
0!
1<
0:
1,
0D
1B
0A
0@
0>
09
17
06
05
03
0+
1)
0(
0'
0%
#575000
1!
1:
0,
0B
1@
07
15
0)
1'
#580000
1#
0"
0!
1=
0<
0:
1,
1D
1A
0?
19
16
04
1+
1(
0&
#585000
1!
1:
0,
0D
1C
0A
09
18
06
0+
1*
0(
#590000
1"
0!
1<
0:
1,
0@
05
0'
#595000
1!
1:
0,
0C
1A
1@
1?
1>
08
16
15
14
13
0*
1(
1'
1&
1%
#600000
1$
0#
0"
0!
1;
0=
0<
0:
1,
0A
0@
0?
0>
06
05
04
03
0(
0'
0&
0%
#605000
1!
1:
0,
1@
15
1'
#610000
1"
0!
1<
0:
1,
1A
0@
16
05
1(
0'
#615000
1!
1:
0,
1D
1C
0A
19
18
06
1+
1*
0(
#620000
1#
0"
0!
1=
0<
0:
1,
0D
1B
1>
09
17
13
0+
1)
1%
#625000
1!
1:
0,
1D
0C
1?
0>
19
08
14
03
1+
0*
1&
0%
#630000
1"
0!
1<
0:
1,
0D
1C
0?
09
18
04
0+
1*
0&
#635000
1!
1:
0,
0B
1A
07
16
0)
1(
#640000
0$
0#
0"
0!
0;
0=
0<
0:
1,
0C
0A
1>
08
06
13
0*
0(
1%
#645000
1!
1:
0,
1D
1A
1@
1?
19
16
15
14
1+
1(
1'
1&
#650000
1"
0!
1<
0:
1,
0D
1B
0A
0@
0>
09
17
06
05
03
0+
1)
0(
0'
0%
#655000
1!
1:
0,
0B
1@
07
15
0)
1'
#660000
1#
0"
0!
1=
0<
0:
1,
1D
1A
0?
19
16
04
1+
1(
0&
#665000
1!
1:
0,
0D
1C
0A
09
18
06
0+
1*
0(
#670000
1"
0!
1<
0:
1,
0@
05
0'
#675000
1!
1:
0,
0C
1A
1@
1?
1>
08
16
15
14
13
0*
1(
1'
1&
1%
#680000
1$
0#
0"
0!
1;
0=
0<
0:
1,
0A
0@
0?
0>
06
05
04
03
0(
0'
0&
0%
#685000
1!
1:
0,
1@
15
1'
#690000
1"
0!
1<
0:
1,
1A
0@
16
05
1(
0'
#695000
1!
1:
0,
1D
1C
0A
19
18
06
1+
1*
0(
#700000
1#
0"
0!
1=
0<
0:
1,
0D
1B
1>
09
17
13
0+
1)
1%
#705000
1!
1:
0,
1D
0C
1?
0>
19
08
14
03
1+
0*
1&
0%
#710000
1"
0!
1<
0:
1,
0D
1C
0?
09
18
04
0+
1*
0&
#715000
1!
1:
0,
0B
1A
07
16
0)
1(
#720000
0$
0#
0"
0!
0;
0=
0<
0:
1,
0C
0A
1>
08
06
13
0*
0(
1%
#725000
1!
1:
0,
1D
1A
1@
1?
19
16
15
14
1+
1(
1'
1&
#730000
1"
0!
1<
0:
1,
0D
1B
0A
0@
0>
09
17
06
05
03
0+
1)
0(
0'
0%
#735000
1!
1:
0,
0B
1@
07
15
0)
1'
#740000
1#
0"
0!
1=
0<
0:
1,
1D
1A
0?
19
16
04
1+
1(
0&
#745000
1!
1:
0,
0D
1C
0A
09
18
06
0+
1*
0(
#750000
1"
0!
1<
0:
1,
0@
05
0'
#755000
1!
1:
0,
0C
1A
1@
1?
1>
08
16
15
14
13
0*
1(
1'
1&
1%
#760000
1$
0#
0"
0!
1;
0=
0<
0:
1,
0A
0@
0?
0>
06
05
04
03
0(
0'
0&
0%
#765000
1!
1:
0,
1@
15
1'
#770000
1"
0!
1<
0:
1,
1A
0@
16
05
1(
0'
#775000
1!
1:
0,
1D
1C
0A
19
18
06
1+
1*
0(
#780000
1#
0"
0!
1=
0<
0:
1,
0D
1B
1>
09
17
13
0+
1)
1%
#785000
1!
1:
0,
1D
0C
1?
0>
19
08
14
03
1+
0*
1&
0%
#790000
1"
0!
1<
0:
1,
0D
1C
0?
09
18
04
0+
1*
0&
#795000
1!
1:
0,
0B
1A
07
16
0)
1(
#800000
0$
0#
0"
0!
0;
0=
0<
0:
1,
0C
0A
1>
08
06
13
0*
0(
1%
#805000
1!
1:
0,
1D
1A
1@
1?
19
16
15
14
1+
1(
1'
1&
#810000
1"
0!
1<
0:
1,
0D
1B
0A
0@
0>
09
17
06
05
03
0+
1)
0(
0'
0%
#815000
1!
1:
0,
0B
1@
07
15
0)
1'
#820000
1#
0"
0!
1=
0<
0:
1,
1D
1A
0?
19
16
04
1+
1(
0&
#825000
1!
1:
0,
0D
1C
0A
09
18
06
0+
1*
0(
#830000
1"
0!
1<
0:
1,
0@
05
0'
#835000
1!
1:
0,
0C
1A
1@
1?
1>
08
16
15
14
13
0*
1(
1'
1&
1%
#840000
1$
0#
0"
0!
1;
0=
0<
0:
1,
0A
0@
0?
0>
06
05
04
03
0(
0'
0&
0%
#845000
1!
1:
0,
1@
15
1'
#850000
1"
0!
1<
0:
1,
1A
0@
16
05
1(
0'
#855000
1!
1:
0,
1D
1C
0A
19
18
06
1+
1*
0(
#860000
1#
0"
0!
1=
0<
0:
1,
0D
1B
1>
09
17
13
0+
1)
1%
#865000
1!
1:
0,
1D
0C
1?
0>
19
08
14
03
1+
0*
1&
0%
#870000
1"
0!
1<
0:
1,
0D
1C
0?
09
18
04
0+
1*
0&
#875000
1!
1:
0,
0B
1A
07
16
0)
1(
#880000
0$
0#
0"
0!
0;
0=
0<
0:
1,
0C
0A
1>
08
06
13
0*
0(
1%
#885000
1!
1:
0,
1D
1A
1@
1?
19
16
15
14
1+
1(
1'
1&
#890000
1"
0!
1<
0:
1,
0D
1B
0A
0@
0>
09
17
06
05
03
0+
1)
0(
0'
0%
#895000
1!
1:
0,
0B
1@
07
15
0)
1'
#900000
1#
0"
0!
1=
0<
0:
1,
1D
1A
0?
19
16
04
1+
1(
0&
#905000
1!
1:
0,
0D
1C
0A
09
18
06
0+
1*
0(
#910000
1"
0!
1<
0:
1,
0@
05
0'
#915000
1!
1:
0,
0C
1A
1@
1?
1>
08
16
15
14
13
0*
1(
1'
1&
1%
#920000
1$
0#
0"
0!
1;
0=
0<
0:
1,
0A
0@
0?
0>
06
05
04
03
0(
0'
0&
0%
#925000
1!
1:
0,
1@
15
1'
#930000
1"
0!
1<
0:
1,
1A
0@
16
05
1(
0'
#935000
1!
1:
0,
1D
1C
0A
19
18
06
1+
1*
0(
#940000
1#
0"
0!
1=
0<
0:
1,
0D
1B
1>
09
17
13
0+
1)
1%
#945000
1!
1:
0,
1D
0C
1?
0>
19
08
14
03
1+
0*
1&
0%
#950000
1"
0!
1<
0:
1,
0D
1C
0?
09
18
04
0+
1*
0&
#955000
1!
1:
0,
0B
1A
07
16
0)
1(
#960000
0$
0#
0"
0!
0;
0=
0<
0:
1,
0C
0A
1>
08
06
13
0*
0(
1%
#965000
1!
1:
0,
1D
1A
1@
1?
19
16
15
14
1+
1(
1'
1&
#970000
1"
0!
1<
0:
1,
0D
1B
0A
0@
0>
09
17
06
05
03
0+
1)
0(
0'
0%
#975000
1!
1:
0,
0B
1@
07
15
0)
1'
#980000
1#
0"
0!
1=
0<
0:
1,
1D
1A
0?
19
16
04
1+
1(
0&
#985000
1!
1:
0,
0D
1C
0A
09
18
06
0+
1*
0(
#990000
1"
0!
1<
0:
1,
0@
05
0'
#995000
1!
1:
0,
0C
1A
1@
1?
1>
08
16
15
14
13
0*
1(
1'
1&
1%
