大一（下）/数字电路与逻辑设计/实验报告/实验源文件/experiment_7/simulation/qsim/experiement_7.msim.vcd
$comment
	File created using the following command:
		vcd file experiement_7.msim.vcd -direction
$end
$date
	Wed May 13 21:15:28 2020
$end
$version
	ModelSim Version 10.1d
$end
$timescale
	1ps
$end
$scope module lab4_vlg_vec_tst $end
$var reg 1 ! CP $end
$var wire 1 " Q [2] $end
$var wire 1 # Q [1] $end
$var wire 1 $ Q [0] $end
$var wire 1 % reset $end
$var wire 1 & sampler $end
$scope module i1 $end
$var wire 1 ' gnd $end
$var wire 1 ( vcc $end
$var wire 1 ) unknown $end
$var tri1 1 * devclrn $end
$var tri1 1 + devpor $end
$var tri1 1 , devoe $end
$var wire 1 - reset~output_o $end
$var wire 1 . Q[2]~output_o $end
$var wire 1 / Q[1]~output_o $end
$var wire 1 0 Q[0]~output_o $end
$var wire 1 1 CP~input_o $end
$var wire 1 2 inst~0_combout $end
$var wire 1 3 inst~feeder_combout $end
$var wire 1 4 inst~q $end
$var wire 1 5 inst6~0_combout $end
$var wire 1 6 inst6~feeder_combout $end
$var wire 1 7 inst6~q $end
$var wire 1 8 inst3~0_combout $end
$var wire 1 9 inst3~q $end
$var wire 1 : inst9~1_combout $end
$upscope $end
$upscope $end
$enddefinitions $end
#0
$dumpvars
0!
0$
0#
0"
1%
x&
0'
1(
x)
1*
1+
1,
1-
0.
0/
00
01
12
13
04
15
16
07
18
09
0:
$end
#5000
1!
11
0&
14
02
10
1$
03
#10000
0!
01
1&
#15000
1!
11
0&
04
12
00
0$
13
17
05
1/
1#
06
#20000
0!
01
1&
#25000
1!
11
0&
14
02
10
1$
03
#30000
0!
01
1&
#35000
1!
11
0&
04
12
00
0$
13
07
15
0/
0#
16
19
08
1.
1"
#40000
0!
01
1&
#45000
1!
11
0&
14
02
10
1$
03
#50000
0!
01
1&
#55000
1!
11
0&
04
12
00
0$
13
17
1:
05
1/
1#
06
0-
0%
07
09
15
18
0/
0.
0#
0"
16
#60000
0!
01
1&
0:
1-
1%
#65000
1!
11
0&
14
02
10
1$
03
#70000
0!
01
1&
#75000
1!
11
0&
04
12
00
0$
13
17
05
1/
1#
06
#80000
0!
01
1&
#85000
1!
11
0&
14
02
10
1$
03
#90000
0!
01
1&
#95000
1!
11
0&
04
12
00
0$
13
07
15
0/
0#
16
19
08
1.
1"
#100000
0!
01
1&
#105000
1!
11
0&
14
02
10
1$
03
#110000
0!
01
1&
#115000
1!
11
0&
04
12
00
0$
13
17
1:
05
1/
1#
06
0-
0%
07
09
15
18
0/
0.
0#
0"
16
#120000
0!
01
1&
0:
1-
1%
#125000
1!
11
0&
14
02
10
1$
03
#130000
0!
01
1&
#135000
1!
11
0&
04
12
00
0$
13
17
05
1/
1#
06
#140000
0!
01
1&
#145000
1!
11
0&
14
02
10
1$
03
#150000
0!
01
1&
#155000
1!
11
0&
04
12
00
0$
13
07
15
0/
0#
16
19
08
1.
1"
#160000
0!
01
1&
#165000
1!
11
0&
14
02
10
1$
03
#170000
0!
01
1&
#175000
1!
11
0&
04
12
00
0$
13
17
1:
05
1/
1#
06
0-
0%
07
09
15
18
0/
0.
0#
0"
16
#180000
0!
01
1&
0:
1-
1%
#185000
1!
11
0&
14
02
10
1$
03
#190000
0!
01
1&
#195000
1!
11
0&
04
12
00
0$
13
17
05
1/
1#
06
#200000
0!
01
1&
#205000
1!
11
0&
14
02
10
1$
03
#210000
0!
01
1&
#215000
1!
11
0&
04
12
00
0$
13
07
15
0/
0#
16
19
08
1.
1"
#220000
0!
01
1&
#225000
1!
11
0&
14
02
10
1$
03
#230000
0!
01
1&
#235000
1!
11
0&
04
12
00
0$
13
17
1:
05
1/
1#
06
0-
0%
07
09
15
18
0/
0.
0#
0"
16
#240000
0!
01
1&
0:
1-
1%
#245000
1!
11
0&
14
02
10
1$
03
#250000
0!
01
1&
#255000
1!
11
0&
04
12
00
0$
13
17
05
1/
1#
06
#260000
0!
01
1&
#265000
1!
11
0&
14
02
10
1$
03
#270000
0!
01
1&
#275000
1!
11
0&
04
12
00
0$
13
07
15
0/
0#
16
19
08
1.
1"
#280000
0!
01
1&
#285000
1!
11
0&
14
02
10
1$
03
#290000
0!
01
1&
#295000
1!
11
0&
04
12
00
0$
13
17
1:
05
1/
1#
06
0-
0%
07
09
15
18
0/
0.
0#
0"
16
#300000
0!
01
1&
0:
1-
1%
#305000
1!
11
0&
14
02
10
1$
03
#310000
0!
01
1&
#315000
1!
11
0&
04
12
00
0$
13
17
05
1/
1#
06
#320000
0!
01
1&
#325000
1!
11
0&
14
02
10
1$
03
#330000
0!
01
1&
#335000
1!
11
0&
04
12
00
0$
13
07
15
0/
0#
16
19
08
1.
1"
#340000
0!
01
1&
#345000
1!
11
0&
14
02
10
1$
03
#350000
0!
01
1&
#355000
1!
11
0&
04
12
00
0$
13
17
1:
05
1/
1#
06
0-
0%
07
09
15
18
0/
0.
0#
0"
16
#360000
0!
01
1&
0:
1-
1%
#365000
1!
11
0&
14
02
10
1$
03
#370000
0!
01
1&
#375000
1!
11
0&
04
12
00
0$
13
17
05
1/
1#
06
#380000
0!
01
1&
#385000
1!
11
0&
14
02
10
1$
03
#390000
0!
01
1&
#395000
1!
11
0&
04
12
00
0$
13
07
15
0/
0#
16
19
08
1.
1"
#400000
0!
01
1&
#405000
1!
11
0&
14
02
10
1$
03
#410000
0!
01
1&
#415000
1!
11
0&
04
12
00
0$
13
17
1:
05
1/
1#
06
0-
0%
07
09
15
18
0/
0.
0#
0"
16
#420000
0!
01
1&
0:
1-
1%
#425000
1!
11
0&
14
02
10
1$
03
#430000
0!
01
1&
#435000
1!
11
0&
04
12
00
0$
13
17
05
1/
1#
06
#440000
0!
01
1&
#445000
1!
11
0&
14
02
10
1$
03
#450000
0!
01
1&
#455000
1!
11
0&
04
12
00
0$
13
07
15
0/
0#
16
19
08
1.
1"
#460000
0!
01
1&
#465000
1!
11
0&
14
02
10
1$
03
#470000
0!
01
1&
#475000
1!
11
0&
04
12
00
0$
13
17
1:
05
1/
1#
06
0-
0%
07
09
15
18
0/
0.
0#
0"
16
#480000
0!
01
1&
0:
1-
1%
#485000
1!
11
0&
14
02
10
1$
03
#490000
0!
01
1&
#495000
1!
11
0&
04
12
00
0$
13
17
05
1/
1#
06
#500000
0!
01
1&
#505000
1!
11
0&
14
02
10
1$
03
#510000
0!
01
1&
#515000
1!
11
0&
04
12
00
0$
13
07
15
0/
0#
16
19
08
1.
1"
#520000
0!
01
1&
#525000
1!
11
0&
14
02
10
1$
03
#530000
0!
01
1&
#535000
1!
11
0&
04
12
00
0$
13
17
1:
05
1/
1#
06
0-
0%
07
09
15
18
0/
0.
0#
0"
16
#540000
0!
01
1&
0:
1-
1%
#545000
1!
11
0&
14
02
10
1$
03
#550000
0!
01
1&
#555000
1!
11
0&
04
12
00
0$
13
17
05
1/
1#
06
#560000
0!
01
1&
#565000
1!
11
0&
14
02
10
1$
03
#570000
0!
01
1&
#575000
1!
11
0&
04
12
00
0$
13
07
15
0/
0#
16
19
08
1.
1"
#580000
0!
01
1&
#585000
1!
11
0&
14
02
10
1$
03
#590000
0!
01
1&
#595000
1!
11
0&
04
12
00
0$
13
17
1:
05
1/
1#
06
0-
0%
07
09
15
18
0/
0.
0#
0"
16
#600000
0!
01
1&
0:
1-
1%
#605000
1!
11
0&
14
02
10
1$
03
#610000
0!
01
1&
#615000
1!
11
0&
04
12
00
0$
13
17
05
1/
1#
06
#620000
0!
01
1&
#625000
1!
11
0&
14
02
10
1$
03
#630000
0!
01
1&
#635000
1!
11
0&
04
12
00
0$
13
07
15
0/
0#
16
19
08
1.
1"
#640000
0!
01
1&
#645000
1!
11
0&
14
02
10
1$
03
#650000
0!
01
1&
#655000
1!
11
0&
04
12
00
0$
13
17
1:
05
1/
1#
06
0-
0%
07
09
15
18
0/
0.
0#
0"
16
#660000
0!
01
1&
0:
1-
1%
#665000
1!
11
0&
14
02
10
1$
03
#670000
0!
01
1&
#675000
1!
11
0&
04
12
00
0$
13
17
05
1/
1#
06
#680000
0!
01
1&
#685000
1!
11
0&
14
02
10
1$
03
#690000
0!
01
1&
#695000
1!
11
0&
04
12
00
0$
13
07
15
0/
0#
16
19
08
1.
1"
#700000
0!
01
1&
#705000
1!
11
0&
14
02
10
1$
03
#710000
0!
01
1&
#715000
1!
11
0&
04
12
00
0$
13
17
1:
05
1/
1#
06
0-
0%
07
09
15
18
0/
0.
0#
0"
16
#720000
0!
01
1&
0:
1-
1%
#725000
1!
11
0&
14
02
10
1$
03
#730000
0!
01
1&
#735000
1!
11
0&
04
12
00
0$
13
17
05
1/
1#
06
#740000
0!
01
1&
#745000
1!
11
0&
14
02
10
1$
03
#750000
0!
01
1&
#755000
1!
11
0&
04
12
00
0$
13
07
15
0/
0#
16
19
08
1.
1"
#760000
0!
01
1&
#765000
1!
11
0&
14
02
10
1$
03
#770000
0!
01
1&
#775000
1!
11
0&
04
12
00
0$
13
17
1:
05
1/
1#
06
0-
0%
07
09
15
18
0/
0.
0#
0"
16
#780000
0!
01
1&
0:
1-
1%
#785000
1!
11
0&
14
02
10
1$
03
#790000
0!
01
1&
#795000
1!
11
0&
04
12
00
0$
13
17
05
1/
1#
06
#800000
0!
01
1&
#805000
1!
11
0&
14
02
10
1$
03
#810000
0!
01
1&
#815000
1!
11
0&
04
12
00
0$
13
07
15
0/
0#
16
19
08
1.
1"
#820000
0!
01
1&
#825000
1!
11
0&
14
02
10
1$
03
#830000
0!
01
1&
#835000
1!
11
0&
04
12
00
0$
13
17
1:
05
1/
1#
06
0-
0%
07
09
15
18
0/
0.
0#
0"
16
#840000
0!
01
1&
0:
1-
1%
#845000
1!
11
0&
14
02
10
1$
03
#850000
0!
01
1&
#855000
1!
11
0&
04
12
00
0$
13
17
05
1/
1#
06
#860000
0!
01
1&
#865000
1!
11
0&
14
02
10
1$
03
#870000
0!
01
1&
#875000
1!
11
0&
04
12
00
0$
13
07
15
0/
0#
16
19
08
1.
1"
#880000
0!
01
1&
#885000
1!
11
0&
14
02
10
1$
03
#890000
0!
01
1&
#895000
1!
11
0&
04
12
00
0$
13
17
1:
05
1/
1#
06
0-
0%
07
09
15
18
0/
0.
0#
0"
16
#900000
0!
01
1&
0:
1-
1%
#905000
1!
11
0&
14
02
10
1$
03
#910000
0!
01
1&
#915000
1!
11
0&
04
12
00
0$
13
17
05
1/
1#
06
#920000
0!
01
1&
#925000
1!
11
0&
14
02
10
1$
03
#930000
0!
01
1&
#935000
1!
11
0&
04
12
00
0$
13
07
15
0/
0#
16
19
08
1.
1"
#940000
0!
01
1&
#945000
1!
11
0&
14
02
10
1$
03
#950000
0!
01
1&
#955000
1!
11
0&
04
12
00
0$
13
17
1:
05
1/
1#
06
0-
0%
07
09
15
18
0/
0.
0#
0"
16
#960000
0!
01
1&
0:
1-
1%
#965000
1!
11
0&
14
02
10
1$
03
#970000
0!
01
1&
#975000
1!
11
0&
04
12
00
0$
13
17
05
1/
1#
06
#980000
0!
01
1&
#985000
1!
11
0&
14
02
10
1$
03
#990000
0!
01
1&
#995000
1!
11
0&
04
12
00
0$
13
07
15
0/
0#
16
19
08
1.
1"
