大一（下）/数字电路与逻辑设计/实验报告/实验源文件/experiment_14/simulation/qsim/experiment_14.msim.vcd
$comment
	File created using the following command:
		vcd file experiment_14.msim.vcd -direction
$end
$date
	Fri Jun 05 14:59:34 2020
$end
$version
	ModelSim Version 10.1d
$end
$timescale
	1ps
$end
$scope module lab2_vlg_vec_tst $end
$var reg 1 ! A $end
$var reg 1 " B $end
$var reg 1 # C $end
$var reg 1 $ D $end
$var wire 1 % seq [6] $end
$var wire 1 & seq [5] $end
$var wire 1 ' seq [4] $end
$var wire 1 ( seq [3] $end
$var wire 1 ) seq [2] $end
$var wire 1 * seq [1] $end
$var wire 1 + seq [0] $end
$var wire 1 , sampler $end
$scope module i1 $end
$var wire 1 - gnd $end
$var wire 1 . vcc $end
$var wire 1 / unknown $end
$var tri1 1 0 devclrn $end
$var tri1 1 1 devpor $end
$var tri1 1 2 devoe $end
$var wire 1 3 seq[6]~output_o $end
$var wire 1 4 seq[5]~output_o $end
$var wire 1 5 seq[4]~output_o $end
$var wire 1 6 seq[3]~output_o $end
$var wire 1 7 seq[2]~output_o $end
$var wire 1 8 seq[1]~output_o $end
$var wire 1 9 seq[0]~output_o $end
$var wire 1 : B~input_o $end
$var wire 1 ; D~input_o $end
$var wire 1 < C~input_o $end
$var wire 1 = A~input_o $end
$var wire 1 > inst|72~combout $end
$var wire 1 ? inst|66~0_combout $end
$var wire 1 @ inst|71~combout $end
$var wire 1 A inst5~0_combout $end
$var wire 1 B inst|70~combout $end
$var wire 1 C inst|68~0_combout $end
$var wire 1 D inst4~0_combout $end
$upscope $end
$upscope $end
$enddefinitions $end
#0
$dumpvars
0!
0"
0#
0$
1+
1*
1)
1(
1'
1&
0%
x,
0-
1.
x/
10
11
12
03
14
15
16
17
18
19
0:
0;
0<
0=
1>
0?
0@
0A
0B
0C
0D
$end
#10000
1!
1=
0,
1D
1A
1@
1?
09
06
05
04
0+
0(
0'
0&
#20000
1"
0!
1:
0=
1,
0D
1B
0A
0@
0>
19
07
16
15
13
1+
0)
1(
1'
1%
#30000
1!
1=
0,
0B
1@
17
05
1)
0'
#40000
1#
0"
0!
1<
0:
0=
1,
1D
1A
0?
09
06
14
0+
0(
1&
#50000
1!
1=
0,
0D
1C
0A
19
08
16
1+
0*
1(
#60000
1"
0!
1:
0=
1,
0@
15
1'
#70000
1!
1=
0,
0C
1A
1@
1?
1>
18
06
05
04
03
1*
0(
0'
0&
0%
#80000
1$
0#
0"
0!
1;
0<
0:
0=
1,
0A
0?
0>
0@
16
14
13
15
1(
1&
1%
1'
#90000
1!
1=
0,
1@
05
0'
#100000
1"
0!
1:
0=
1,
1D
1C
1B
0@
1?
09
08
07
15
04
0+
0*
0)
1'
0&
#110000
1!
1=
0,
0B
1@
17
05
1)
0'
#120000
1#
0"
0!
1<
0:
0=
1,
0C
1B
1A
0?
18
07
06
14
1*
0)
0(
1&
#130000
1!
1=
0,
0D
1C
0A
19
08
16
1+
0*
1(
#140000
1"
0!
1:
0=
1,
1D
0@
09
15
0+
1'
#150000
1!
1=
0,
1A
1@
1?
1>
06
05
04
03
0(
0'
0&
0%
#160000
0$
0#
0"
0!
0;
0<
0:
0=
1,
0D
0C
0B
0A
0?
0@
19
18
17
16
14
15
1+
1*
1)
1(
1&
1'
#170000
1!
1=
0,
1D
1A
1@
1?
09
06
05
04
0+
0(
0'
0&
#180000
1"
0!
1:
0=
1,
0D
1B
0A
0@
0>
19
07
16
15
13
1+
0)
1(
1'
1%
#190000
1!
1=
0,
0B
1@
17
05
1)
0'
#200000
1#
0"
0!
1<
0:
0=
1,
1D
1A
0?
09
06
14
0+
0(
1&
#210000
1!
1=
0,
0D
1C
0A
19
08
16
1+
0*
1(
#220000
1"
0!
1:
0=
1,
0@
15
1'
#230000
1!
1=
0,
0C
1A
1@
1?
1>
18
06
05
04
03
1*
0(
0'
0&
0%
#240000
1$
0#
0"
0!
1;
0<
0:
0=
1,
0A
0?
0>
0@
16
14
13
15
1(
1&
1%
1'
#250000
1!
1=
0,
1@
05
0'
#260000
1"
0!
1:
0=
1,
1D
1C
1B
0@
1?
09
08
07
15
04
0+
0*
0)
1'
0&
#270000
1!
1=
0,
0B
1@
17
05
1)
0'
#280000
1#
0"
0!
1<
0:
0=
1,
0C
1B
1A
0?
18
07
06
14
1*
0)
0(
1&
#290000
1!
1=
0,
0D
1C
0A
19
08
16
1+
0*
1(
#300000
1"
0!
1:
0=
1,
1D
0@
09
15
0+
1'
#310000
1!
1=
0,
1A
1@
1?
1>
06
05
04
03
0(
0'
0&
0%
#320000
0$
0#
0"
0!
0;
0<
0:
0=
1,
0D
0C
0B
0A
0?
0@
19
18
17
16
14
15
1+
1*
1)
1(
1&
1'
#330000
1!
1=
0,
1D
1A
1@
1?
09
06
05
04
0+
0(
0'
0&
#340000
1"
0!
1:
0=
1,
0D
1B
0A
0@
0>
19
07
16
15
13
1+
0)
1(
1'
1%
#350000
1!
1=
0,
0B
1@
17
05
1)
0'
#360000
1#
0"
0!
1<
0:
0=
1,
1D
1A
0?
09
06
14
0+
0(
1&
#370000
1!
1=
0,
0D
1C
0A
19
08
16
1+
0*
1(
#380000
1"
0!
1:
0=
1,
0@
15
1'
#390000
1!
1=
0,
0C
1A
1@
1?
1>
18
06
05
04
03
1*
0(
0'
0&
0%
#400000
1$
0#
0"
0!
1;
0<
0:
0=
1,
0A
0?
0>
0@
16
14
13
15
1(
1&
1%
1'
#410000
1!
1=
0,
1@
05
0'
#420000
1"
0!
1:
0=
1,
1D
1C
1B
0@
1?
09
08
07
15
04
0+
0*
0)
1'
0&
#430000
1!
1=
0,
0B
1@
17
05
1)
0'
#440000
1#
0"
0!
1<
0:
0=
1,
0C
1B
1A
0?
18
07
06
14
1*
0)
0(
1&
#450000
1!
1=
0,
0D
1C
0A
19
08
16
1+
0*
1(
#460000
1"
0!
1:
0=
1,
1D
0@
09
15
0+
1'
#470000
1!
1=
0,
1A
1@
1?
1>
06
05
04
03
0(
0'
0&
0%
#480000
0$
0#
0"
0!
0;
0<
0:
0=
1,
0D
0C
0B
0A
0?
0@
19
18
17
16
14
15
1+
1*
1)
1(
1&
1'
#490000
1!
1=
0,
1D
1A
1@
1?
09
06
05
04
0+
0(
0'
0&
#500000
1"
0!
1:
0=
1,
0D
1B
0A
0@
0>
19
07
16
15
13
1+
0)
1(
1'
1%
#510000
1!
1=
0,
0B
1@
17
05
1)
0'
#520000
1#
0"
0!
1<
0:
0=
1,
1D
1A
0?
09
06
14
0+
0(
1&
#530000
1!
1=
0,
0D
1C
0A
19
08
16
1+
0*
1(
#540000
1"
0!
1:
0=
1,
0@
15
1'
#550000
1!
1=
0,
0C
1A
1@
1?
1>
18
06
05
04
03
1*
0(
0'
0&
0%
#560000
1$
0#
0"
0!
1;
0<
0:
0=
1,
0A
0?
0>
0@
16
14
13
15
1(
1&
1%
1'
#570000
1!
1=
0,
1@
05
0'
#580000
1"
0!
1:
0=
1,
1D
1C
1B
0@
1?
09
08
07
15
04
0+
0*
0)
1'
0&
#590000
1!
1=
0,
0B
1@
17
05
1)
0'
#600000
1#
0"
0!
1<
0:
0=
1,
0C
1B
1A
0?
18
07
06
14
1*
0)
0(
1&
#610000
1!
1=
0,
0D
1C
0A
19
08
16
1+
0*
1(
#620000
1"
0!
1:
0=
1,
1D
0@
09
15
0+
1'
#630000
1!
1=
0,
1A
1@
1?
1>
06
05
04
03
0(
0'
0&
0%
#640000
0$
0#
0"
0!
0;
0<
0:
0=
1,
0D
0C
0B
0A
0?
0@
19
18
17
16
14
15
1+
1*
1)
1(
1&
1'
#650000
1!
1=
0,
1D
1A
1@
1?
09
06
05
04
0+
0(
0'
0&
#660000
1"
0!
1:
0=
1,
0D
1B
0A
0@
0>
19
07
16
15
13
1+
0)
1(
1'
1%
#670000
1!
1=
0,
0B
1@
17
05
1)
0'
#680000
1#
0"
0!
1<
0:
0=
1,
1D
1A
0?
09
06
14
0+
0(
1&
#690000
1!
1=
0,
0D
1C
0A
19
08
16
1+
0*
1(
#700000
1"
0!
1:
0=
1,
0@
15
1'
#710000
1!
1=
0,
0C
1A
1@
1?
1>
18
06
05
04
03
1*
0(
0'
0&
0%
#720000
1$
0#
0"
0!
1;
0<
0:
0=
1,
0A
0?
0>
0@
16
14
13
15
1(
1&
1%
1'
#730000
1!
1=
0,
1@
05
0'
#740000
1"
0!
1:
0=
1,
1D
1C
1B
0@
1?
09
08
07
15
04
0+
0*
0)
1'
0&
#750000
1!
1=
0,
0B
1@
17
05
1)
0'
#760000
1#
0"
0!
1<
0:
0=
1,
0C
1B
1A
0?
18
07
06
14
1*
0)
0(
1&
#770000
1!
1=
0,
0D
1C
0A
19
08
16
1+
0*
1(
#780000
1"
0!
1:
0=
1,
1D
0@
09
15
0+
1'
#790000
1!
1=
0,
1A
1@
1?
1>
06
05
04
03
0(
0'
0&
0%
#800000
0$
0#
0"
0!
0;
0<
0:
0=
1,
0D
0C
0B
0A
0?
0@
19
18
17
16
14
15
1+
1*
1)
1(
1&
1'
#810000
1!
1=
0,
1D
1A
1@
1?
09
06
05
04
0+
0(
0'
0&
#820000
1"
0!
1:
0=
1,
0D
1B
0A
0@
0>
19
07
16
15
13
1+
0)
1(
1'
1%
#830000
1!
1=
0,
0B
1@
17
05
1)
0'
#840000
1#
0"
0!
1<
0:
0=
1,
1D
1A
0?
09
06
14
0+
0(
1&
#850000
1!
1=
0,
0D
1C
0A
19
08
16
1+
0*
1(
#860000
1"
0!
1:
0=
1,
0@
15
1'
#870000
1!
1=
0,
0C
1A
1@
1?
1>
18
06
05
04
03
1*
0(
0'
0&
0%
#880000
1$
0#
0"
0!
1;
0<
0:
0=
1,
0A
0?
0>
0@
16
14
13
15
1(
1&
1%
1'
#890000
1!
1=
0,
1@
05
0'
#900000
1"
0!
1:
0=
1,
1D
1C
1B
0@
1?
09
08
07
15
04
0+
0*
0)
1'
0&
#910000
1!
1=
0,
0B
1@
17
05
1)
0'
#920000
1#
0"
0!
1<
0:
0=
1,
0C
1B
1A
0?
18
07
06
14
1*
0)
0(
1&
#930000
1!
1=
0,
0D
1C
0A
19
08
16
1+
0*
1(
#940000
1"
0!
1:
0=
1,
1D
0@
09
15
0+
1'
#950000
1!
1=
0,
1A
1@
1?
1>
06
05
04
03
0(
0'
0&
0%
#960000
0$
0#
0"
0!
0;
0<
0:
0=
1,
0D
0C
0B
0A
0?
0@
19
18
17
16
14
15
1+
1*
1)
1(
1&
1'
#970000
1!
1=
0,
1D
1A
1@
1?
09
06
05
04
0+
0(
0'
0&
#980000
1"
0!
1:
0=
1,
0D
1B
0A
0@
0>
19
07
16
15
13
1+
0)
1(
1'
1%
#990000
1!
1=
0,
0B
1@
17
05
1)
0'
