大一（下）/数字电路与逻辑设计/实验报告/实验源文件/experiment_11/simulation/qsim/experiment_11.msim.vcd
$comment
	File created using the following command:
		vcd file experiment_11.msim.vcd -direction
$end
$date
	Wed May 27 20:43:35 2020
$end
$version
	ModelSim Version 10.1d
$end
$timescale
	1ps
$end
$scope module lab2_vlg_vec_tst $end
$var reg 1 ! clk $end
$var reg 1 " Start $end
$var wire 1 # F [3] $end
$var wire 1 $ F [2] $end
$var wire 1 % F [1] $end
$var wire 1 & F [0] $end
$var wire 1 ' sBON $end
$var wire 1 ( Y [3] $end
$var wire 1 ) Y [2] $end
$var wire 1 * Y [1] $end
$var wire 1 + Y [0] $end
$var wire 1 , sampler $end
$scope module i1 $end
$var wire 1 - gnd $end
$var wire 1 . vcc $end
$var wire 1 / unknown $end
$var tri1 1 0 devclrn $end
$var tri1 1 1 devpor $end
$var tri1 1 2 devoe $end
$var wire 1 3 sBON~output_o $end
$var wire 1 4 F[3]~output_o $end
$var wire 1 5 F[2]~output_o $end
$var wire 1 6 F[1]~output_o $end
$var wire 1 7 F[0]~output_o $end
$var wire 1 8 Y[3]~output_o $end
$var wire 1 9 Y[2]~output_o $end
$var wire 1 : Y[1]~output_o $end
$var wire 1 ; Y[0]~output_o $end
$var wire 1 < inst1|74~combout $end
$var wire 1 = inst1|25~0_combout $end
$var wire 1 > Start~input_o $end
$var wire 1 ? Start~inputclkctrl_outclk $end
$var wire 1 @ inst1|25~q $end
$var wire 1 A inst1|22~combout $end
$var wire 1 B inst1|23~0_combout $end
$var wire 1 C inst1|23~q $end
$var wire 1 D inst1|72~combout $end
$var wire 1 E inst1|71~combout $end
$var wire 1 F inst1|24~0_combout $end
$var wire 1 G inst1|24~q $end
$var wire 1 H clk~input_o $end
$var wire 1 I inst4~combout $end
$var wire 1 J inst|26~0_combout $end
$var wire 1 K inst|26~q $end
$var wire 1 L inst|71~combout $end
$var wire 1 M inst|24~0_combout $end
$var wire 1 N inst|24~q $end
$var wire 1 O inst|22~combout $end
$var wire 1 P inst|23~0_combout $end
$var wire 1 Q inst|23~q $end
$var wire 1 R inst|72~combout $end
$var wire 1 S inst|74~combout $end
$var wire 1 T inst|25~0_combout $end
$var wire 1 U inst|25~q $end
$var wire 1 V inst|71~4_combout $end
$var wire 1 W inst|28~combout $end
$var wire 1 X inst1|26~0_combout $end
$var wire 1 Y inst1|26~q $end
$var wire 1 Z inst1|71~4_combout $end
$var wire 1 [ inst1|28~combout $end
$upscope $end
$upscope $end
$enddefinitions $end
#0
$dumpvars
0!
0"
1&
0%
1$
0#
1'
0+
1*
0)
0(
x,
0-
1.
x/
10
11
12
13
04
15
06
17
08
09
1:
0;
1<
1=
0>
0?
0@
1A
1B
0C
0D
1E
1F
0G
0H
0I
1J
0K
1L
1M
0N
1O
1P
0Q
0R
1S
1T
0U
0V
0W
1X
0Y
0Z
0[
$end
#5000
1!
1H
0,
1I
#10000
1"
0!
1>
0H
1?
1,
0I
#15000
1!
1H
0,
1I
1K
0J
07
0&
#20000
0!
0H
1,
0I
1V
0S
0L
#25000
1!
1H
0,
1I
0V
1S
1L
1N
0K
1U
0M
1J
0T
05
17
16
0$
1&
1%
#30000
0!
0H
1,
0I
#35000
1!
1H
0,
1I
1K
0J
07
0&
#40000
0!
0H
1,
0I
0S
#45000
1!
1H
0,
1I
1S
0K
0U
1J
1T
1R
17
06
1&
0%
#50000
0!
0H
1,
0I
#55000
1!
1H
0,
1I
1K
0J
07
0&
#60000
0!
0H
1,
0I
1V
0O
1W
0<
#65000
1!
1H
0,
1I
0V
1O
0W
1<
1@
0K
1Y
1Q
1D
0=
1J
0X
0R
0P
0:
17
1;
14
0*
1&
1+
1#
#70000
0!
0H
1,
0I
#75000
1!
1H
0,
1I
1K
0J
07
0&
#80000
0!
0H
1,
0I
1V
0S
0O
0L
#85000
1!
1H
0,
1I
0V
1S
1O
1L
0N
0K
1U
0Q
1M
1J
0T
1P
15
17
16
04
1$
1&
1%
0#
#90000
0!
0H
1,
0I
#95000
1!
1H
0,
1I
1K
0J
07
0&
#100000
0!
0H
1,
0I
0S
#105000
1!
1H
0,
1I
1S
0K
0U
1J
1T
17
06
1&
0%
#110000
0!
0H
1,
0I
#115000
1!
1H
0,
1I
1K
0J
07
0&
#120000
0!
0H
1,
0I
1V
0S
0L
#125000
1!
1H
0,
1I
0V
1S
1L
1N
0K
1U
0M
1J
0T
05
17
16
0$
1&
1%
#130000
0!
0H
1,
0I
#135000
1!
1H
0,
1I
1K
0J
07
0&
#140000
0!
0H
1,
0I
0S
#145000
1!
1H
0,
1I
1S
0K
0U
1J
1T
1R
17
06
1&
0%
#150000
0!
0H
1,
0I
#155000
1!
1H
0,
1I
1K
0J
07
0&
#160000
0!
0H
1,
0I
1V
0O
1W
#165000
1!
1H
0,
1I
0V
1O
0W
0K
0Y
1Q
1J
1X
0R
0P
17
0;
14
1&
0+
1#
#170000
0!
0H
1,
0I
#175000
1!
1H
0,
1I
1K
0J
07
0&
#180000
0!
0H
1,
0I
1V
0S
0O
0L
#185000
1!
1H
0,
1I
0V
1S
1O
1L
0N
0K
1U
0Q
1M
1J
0T
1P
15
17
16
04
1$
1&
1%
0#
#190000
0!
0H
1,
0I
#195000
1!
1H
0,
1I
1K
0J
07
0&
#200000
0!
0H
1,
0I
0S
#205000
1!
1H
0,
1I
1S
0K
0U
1J
1T
17
06
1&
0%
#210000
0!
0H
1,
0I
#215000
1!
1H
0,
1I
1K
0J
07
0&
#220000
0!
0H
1,
0I
1V
0S
0L
#225000
1!
1H
0,
1I
0V
1S
1L
1N
0K
1U
0M
1J
0T
05
17
16
0$
1&
1%
#230000
0!
0H
1,
0I
#235000
1!
1H
0,
1I
1K
0J
07
0&
#240000
0!
0H
1,
0I
0S
#245000
1!
1H
0,
1I
1S
0K
0U
1J
1T
1R
17
06
1&
0%
#250000
0!
0H
1,
0I
#255000
1!
1H
0,
1I
1K
0J
07
0&
#260000
0!
0H
1,
0I
1V
0O
1W
1Z
0A
1[
03
0'
#265000
1!
1H
0,
#270000
0!
0H
1,
#275000
1!
1H
0,
#280000
0!
0H
1,
#285000
1!
1H
0,
#290000
0!
0H
1,
#295000
1!
1H
0,
#300000
0!
0H
1,
#305000
1!
1H
0,
#310000
0!
0H
1,
#315000
1!
1H
0,
#320000
0!
0H
1,
#325000
1!
1H
0,
#330000
0!
0H
1,
#335000
1!
1H
0,
#340000
0!
0H
1,
#345000
1!
1H
0,
#350000
0!
0H
1,
#355000
1!
1H
0,
#360000
0!
0H
1,
#365000
1!
1H
0,
#370000
0!
0H
1,
#375000
1!
1H
0,
#380000
0!
0H
1,
#385000
1!
1H
0,
#390000
0!
0H
1,
#395000
1!
1H
0,
#400000
0!
0H
1,
#405000
1!
1H
0,
#410000
0!
0H
1,
#415000
1!
1H
0,
#420000
0!
0H
1,
#425000
1!
1H
0,
#430000
0!
0H
1,
#435000
1!
1H
0,
#440000
0!
0H
1,
#445000
1!
1H
0,
#450000
0!
0H
1,
#455000
1!
1H
0,
#460000
0!
0H
1,
#465000
1!
1H
0,
#470000
0!
0H
1,
#475000
1!
1H
0,
#480000
0!
0H
1,
#485000
1!
1H
0,
#490000
0!
0H
1,
#495000
1!
1H
0,
#500000
0!
0H
1,
#505000
1!
1H
0,
#510000
0!
0H
1,
#515000
1!
1H
0,
#520000
0!
0H
1,
#525000
1!
1H
0,
#530000
0!
0H
1,
#535000
1!
1H
0,
#540000
0!
0H
1,
#545000
1!
1H
0,
#550000
0!
0H
1,
#555000
1!
1H
0,
#560000
0!
0H
1,
#565000
1!
1H
0,
#570000
0!
0H
1,
#575000
1!
1H
0,
#580000
0!
0H
1,
#585000
1!
1H
0,
#590000
0!
0H
1,
#595000
1!
1H
0,
#600000
0!
0H
1,
#605000
1!
1H
0,
#610000
0!
0H
1,
#615000
1!
1H
0,
#620000
0!
0H
1,
#625000
1!
1H
0,
#630000
0!
0H
1,
#635000
1!
1H
0,
#640000
0!
0H
1,
#645000
1!
1H
0,
#650000
0!
0H
1,
#655000
1!
1H
0,
#660000
0!
0H
1,
#665000
1!
1H
0,
#670000
0!
0H
1,
#675000
1!
1H
0,
#680000
0!
0H
1,
#685000
1!
1H
0,
#690000
0!
0H
1,
#695000
1!
1H
0,
#700000
0!
0H
1,
#705000
1!
1H
0,
#710000
0!
0H
1,
#715000
1!
1H
0,
#720000
0!
0H
1,
#725000
1!
1H
0,
#730000
0!
0H
1,
#735000
1!
1H
0,
#740000
0!
0H
1,
#745000
1!
1H
0,
#750000
0!
0H
1,
#755000
1!
1H
0,
#760000
0!
0H
1,
#765000
1!
1H
0,
#770000
0!
0H
1,
#775000
1!
1H
0,
#780000
0!
0H
1,
#785000
1!
1H
0,
#790000
0!
0H
1,
#795000
1!
1H
0,
#800000
0!
0H
1,
#805000
1!
1H
0,
#810000
0!
0H
1,
#815000
1!
1H
0,
#820000
0!
0H
1,
#825000
1!
1H
0,
#830000
0!
0H
1,
#835000
1!
1H
0,
#840000
0!
0H
1,
#845000
1!
1H
0,
#850000
0!
0H
1,
#855000
1!
1H
0,
#860000
0!
0H
1,
#865000
1!
1H
0,
#870000
0!
0H
1,
#875000
1!
1H
0,
#880000
0!
0H
1,
#885000
1!
1H
0,
#890000
0!
0H
1,
#895000
1!
1H
0,
#900000
0!
0H
1,
#905000
1!
1H
0,
#910000
0!
0H
1,
#915000
1!
1H
0,
#920000
0!
0H
1,
#925000
1!
1H
0,
#930000
0!
0H
1,
#935000
1!
1H
0,
#940000
0!
0H
1,
#945000
1!
1H
0,
#950000
0!
0H
1,
#955000
1!
1H
0,
#960000
0!
0H
1,
#965000
1!
1H
0,
#970000
0!
0H
1,
#975000
1!
1H
0,
#980000
0!
0H
1,
#985000
1!
1H
0,
#990000
0!
0H
1,
#995000
1!
1H
0,
