大一（下）/数字电路与逻辑设计/实验报告/实验源文件/exeriment_2/simulation/qsim/experiment_2.msim.vcd
$comment
	File created using the following command:
		vcd file experiment_2.msim.vcd -direction
$end
$date
	Wed Apr 29 21:11:53 2020
$end
$version
	ModelSim Version 10.1d
$end
$timescale
	1ps
$end
$scope module block1_vlg_vec_tst $end
$var reg 1 ! A $end
$var reg 1 " B $end
$var reg 1 # C $end
$var reg 1 $ D $end
$var wire 1 % F $end
$var wire 1 & sampler $end
$scope module i1 $end
$var wire 1 ' gnd $end
$var wire 1 ( vcc $end
$var wire 1 ) unknown $end
$var tri1 1 * devclrn $end
$var tri1 1 + devpor $end
$var tri1 1 , devoe $end
$var wire 1 - F~output_o $end
$var wire 1 . B~input_o $end
$var wire 1 / C~input_o $end
$var wire 1 0 A~input_o $end
$var wire 1 1 D~input_o $end
$var wire 1 2 inst15~0_combout $end
$upscope $end
$upscope $end
$enddefinitions $end
#0
$dumpvars
0!
0"
0#
0$
0%
x&
0'
1(
x)
1*
1+
1,
0-
0.
0/
00
01
02
$end
#40000
1$
11
0&
#80000
1#
0$
1/
01
1&
#120000
1$
11
0&
#160000
1"
0#
0$
1.
0/
01
1&
#200000
1$
11
0&
12
1-
1%
#240000
1#
0$
1/
01
1&
#280000
1$
11
0&
#320000
1!
0"
0#
0$
10
0.
0/
01
1&
#360000
1$
11
0&
#400000
1#
0$
1/
01
1&
#440000
1$
11
0&
#480000
1"
0#
0$
1.
0/
01
1&
#520000
1$
11
0&
#560000
1#
0$
1/
01
1&
#600000
1$
11
0&
#640000
0!
0"
0#
0$
00
0.
0/
01
1&
02
0-
0%
#680000
1$
11
0&
#720000
1#
0$
1/
01
1&
#760000
1$
11
0&
#800000
1"
0#
0$
1.
0/
01
1&
#840000
1$
11
0&
12
1-
1%
#880000
1#
0$
1/
01
1&
#920000
1$
11
0&
#960000
1!
0"
0#
0$
10
0.
0/
01
1&
