大一（下）/数字电路与逻辑设计/实验报告/实验源文件/experiment_3/simulation/qsim/project.msim.vcd
$comment
	File created using the following command:
		vcd file project.msim.vcd -direction
$end
$date
	Thu Apr 30 10:49:34 2020
$end
$version
	ModelSim Version 10.1d
$end
$timescale
	1ps
$end
$scope module block2_vlg_vec_tst $end
$var reg 1 ! L $end
$var reg 1 " P $end
$var reg 1 # T $end
$var wire 1 $ G $end
$var wire 1 % R $end
$var wire 1 & Y $end
$var wire 1 ' sampler $end
$scope module i1 $end
$var wire 1 ( gnd $end
$var wire 1 ) vcc $end
$var wire 1 * unknown $end
$var tri1 1 + devclrn $end
$var tri1 1 , devpor $end
$var tri1 1 - devoe $end
$var wire 1 . G~output_o $end
$var wire 1 / Y~output_o $end
$var wire 1 0 R~output_o $end
$var wire 1 1 P~input_o $end
$var wire 1 2 L~input_o $end
$var wire 1 3 T~input_o $end
$var wire 1 4 inst~combout $end
$var wire 1 5 inst8~0_combout $end
$var wire 1 6 inst12~0_combout $end
$upscope $end
$upscope $end
$enddefinitions $end
#0
$dumpvars
0!
0"
0#
0$
1%
1&
x'
0(
1)
x*
1+
1,
1-
0.
1/
10
01
02
03
14
05
16
$end
#40000
1#
13
0'
15
04
0/
1.
0&
1$
#80000
1"
0#
11
03
1'
#120000
1#
13
0'
05
06
1/
00
1&
0%
#160000
1!
0"
0#
12
01
03
1'
15
16
0/
10
0&
1%
#200000
1#
13
0'
05
06
1/
00
1&
0%
#240000
1"
0#
11
03
1'
#280000
1#
13
0'
15
0/
0&
#320000
0!
0"
0#
02
01
03
1'
05
14
16
1/
0.
10
1&
0$
1%
#360000
1#
13
0'
15
04
0/
1.
0&
1$
#400000
1"
0#
11
03
1'
#440000
1#
13
0'
05
06
1/
00
1&
0%
#480000
1!
0"
0#
12
01
03
1'
15
16
0/
10
0&
1%
#520000
1#
13
0'
05
06
1/
00
1&
0%
#560000
1"
0#
11
03
1'
#600000
1#
13
0'
15
0/
0&
#640000
0!
0"
0#
02
01
03
1'
05
14
16
1/
0.
10
1&
0$
1%
#680000
1#
13
0'
15
04
0/
1.
0&
1$
#720000
1"
0#
11
03
1'
#760000
1#
13
0'
05
06
1/
00
1&
0%
#800000
1!
0"
0#
12
01
03
1'
15
16
0/
10
0&
1%
#840000
1#
13
0'
05
06
1/
00
1&
0%
#880000
1"
0#
11
03
1'
#920000
1#
13
0'
15
0/
0&
#960000
0!
0"
0#
02
01
03
1'
05
14
16
1/
0.
10
1&
0$
1%
